questionnaire	02_ROS_LineFollowing	02_ROS_LineFollowing	02_ROS_LineFollowing	03_uRT_Tutorial	03_uRT_Tutorial	03_uRT_Tutorial	04_uRT_LineFollowing	04_uRT_LineFollowing	04_uRT_LineFollowing
	#1	#2	#3	#1	#2	#3	#1	#2	#3
participant									
5	heavily supports object oriented programming	usage of packages from other sources	once setup, quite easy to use	n/a	n/a	n/a	flexible	when stuff works, it works	n/a
8	It is simple	n/a	n/a	Has a good structure	n/a	n/a	seems to have many possibilities	n/a	n/a
15	It is the most popular way for programming robots	It is very well documented and has thorough official tutorials	It provides an interface for C++ AND python	real time capable	needs smaller storage space (I think)	n/a	everything concerning the node can be found in one struct	it lets the AMiRo follow the line :) 	n/a
16	large community	C and python support	n/a	real time communication	n/a	n/a	It works :)	n/a	n/a
