questionnaire	02_ROS_LineFollowing	02_ROS_LineFollowing	02_ROS_LineFollowing	02_ROS_LineFollowing	02_ROS_LineFollowing	02_ROS_LineFollowing	02_ROS_LineFollowing	02_ROS_LineFollowing	02_ROS_LineFollowing	02_ROS_LineFollowing	02_ROS_LineFollowing	02_ROS_LineFollowing	02_ROS_LineFollowing	02_ROS_LineFollowing	02_ROS_LineFollowing	02_ROS_LineFollowing	02_ROS_LineFollowing	02_ROS_LineFollowing	02_ROS_LineFollowing	02_ROS_LineFollowing	02_ROS_LineFollowing	02_ROS_LineFollowing	02_ROS_LineFollowing	02_ROS_LineFollowing	02_ROS_LineFollowing	02_ROS_LineFollowing	03_uRT_Tutorial	03_uRT_Tutorial	03_uRT_Tutorial	03_uRT_Tutorial	03_uRT_Tutorial	03_uRT_Tutorial	03_uRT_Tutorial	03_uRT_Tutorial	03_uRT_Tutorial	03_uRT_Tutorial	03_uRT_Tutorial	03_uRT_Tutorial	03_uRT_Tutorial	03_uRT_Tutorial	03_uRT_Tutorial	03_uRT_Tutorial	03_uRT_Tutorial	03_uRT_Tutorial	03_uRT_Tutorial	03_uRT_Tutorial	03_uRT_Tutorial	03_uRT_Tutorial	03_uRT_Tutorial	03_uRT_Tutorial	03_uRT_Tutorial	03_uRT_Tutorial	04_uRT_LineFollowing	04_uRT_LineFollowing	04_uRT_LineFollowing	04_uRT_LineFollowing	04_uRT_LineFollowing	04_uRT_LineFollowing	04_uRT_LineFollowing	04_uRT_LineFollowing	04_uRT_LineFollowing	04_uRT_LineFollowing	04_uRT_LineFollowing	04_uRT_LineFollowing	04_uRT_LineFollowing	04_uRT_LineFollowing	04_uRT_LineFollowing	04_uRT_LineFollowing	04_uRT_LineFollowing	04_uRT_LineFollowing	04_uRT_LineFollowing	04_uRT_LineFollowing	04_uRT_LineFollowing	04_uRT_LineFollowing	04_uRT_LineFollowing	04_uRT_LineFollowing	04_uRT_LineFollowing	04_uRT_LineFollowing
question	It helps me be more effective.	It helps me be more productive.	It is useful.	It gives me more control over the activities in my life.	It makes the things I want to accomplish easier to get done.	It saves me time when I use it.	It meets my needs.	It does everything I would expect it to do.	It is easy to use.	It is simple to use.	It is user friendly.	It requires the fewest steps possible to accomplish what I want to do with it.	It is flexible.	Using it is effortless.	I can use it without written instructions.	I learned to use it quickly.	I easily remember how to use it.	It is easy to learn to use it.	I quickly became skillful with it.	I am satisfied with it.	I would recommend it to a friend.	It is fun to use.	It works the way I want it to work.	It is wonderful.	I feel I need to have it.	It is pleasant to use.	It helps me be more effective.	It helps me be more productive.	It is useful.	It gives me more control over the activities in my life.	It makes the things I want to accomplish easier to get done.	It saves me time when I use it.	It meets my needs.	It does everything I would expect it to do.	It is easy to use.	It is simple to use.	It is user friendly.	It requires the fewest steps possible to accomplish what I want to do with it.	It is flexible.	Using it is effortless.	I can use it without written instructions.	I learned to use it quickly.	I easily remember how to use it.	It is easy to learn to use it.	I quickly became skillful with it.	I am satisfied with it.	I would recommend it to a friend.	It is fun to use.	It works the way I want it to work.	It is wonderful.	I feel I need to have it.	It is pleasant to use.	It helps me be more effective.	It helps me be more productive.	It is useful.	It gives me more control over the activities in my life.	It makes the things I want to accomplish easier to get done.	It saves me time when I use it.	It meets my needs.	It does everything I would expect it to do.	It is easy to use.	It is simple to use.	It is user friendly.	It requires the fewest steps possible to accomplish what I want to do with it.	It is flexible.	Using it is effortless.	I can use it without written instructions.	I learned to use it quickly.	I easily remember how to use it.	It is easy to learn to use it.	I quickly became skillful with it.	I am satisfied with it.	I would recommend it to a friend.	It is fun to use.	It works the way I want it to work.	It is wonderful.	I feel I need to have it.	It is pleasant to use.
participant																																																																														
5	-	-	++	strongly disagree	-	-	0	++	+	+	+	+	strongly agree	-	strongly disagree	--	0	0	+	+	+	-	++	+	strongly disagree	strongly disagree	0	0	++	--	-	-	--	++	--	--	-	-	strongly agree	-	strongly disagree	--	--	-	0	+	-	--	++	-	--	--	0	0	++	strongly disagree	+	0	+	++	-	0	0	0	++	-	strongly disagree	-	-	-	-	+	0	-	++	-	-	-
8	strongly agree	strongly agree	strongly agree	++	strongly agree	strongly agree	strongly agree	strongly agree	strongly agree	strongly agree	strongly agree	strongly agree	strongly agree	strongly agree	-	strongly agree	+	strongly agree	++	strongly agree	strongly agree	strongly agree	strongly agree	++	0	+	++	++	++	0	++	++	++	0	0	0	+	0	+	0	-	0	0	0	0	0	0	0	0	0	-	0	++	++	++	-	++	++	++	++	++	++	++	++	++	+	0	0	+	+	+	+	+	+	+	+	+	+
15	++	++	++	--	+	+	strongly agree	++	+	++	++	+	++	++	+	0	++	0	++	strongly agree	strongly agree	strongly agree	++	0	0	+	0	0	+	-	0	-	0	0	-	-	--	-	0	-	--	+	-	0	-	0	0	0	+	0	0	-	+	+	strongly agree	0	+	0	+	0	0	0	-	--	0	0	--	++	0	0	0	+	-	++	0	0	-	0
16	+	+	++	+	+	+	+	++	+	+	+	0	+	+	-	0	-	-	-	0	+	0	+	+	++	+	0	0	+	--	0	+	0	0	+	+	+	0	0	0	--	-	-	-	--	-	--	-	++	0	-	0	++	++	++	+	++	++	++	++	+	+	+	+	+	+	+	++	0	+	+	+	0	+	strongly agree	+	0	0
