questionnaire	02_ROS_LineFollowing	02_ROS_LineFollowing	02_ROS_LineFollowing	02_ROS_LineFollowing	02_ROS_LineFollowing	02_ROS_LineFollowing	02_ROS_LineFollowing	02_ROS_LineFollowing	03_uRT_Tutorial	03_uRT_Tutorial	03_uRT_Tutorial	03_uRT_Tutorial	03_uRT_Tutorial	03_uRT_Tutorial	03_uRT_Tutorial	03_uRT_Tutorial	04_uRT_LineFollowing	04_uRT_LineFollowing	04_uRT_LineFollowing	04_uRT_LineFollowing	04_uRT_LineFollowing	04_uRT_LineFollowing	04_uRT_LineFollowing	04_uRT_LineFollowing
section	Usefulness	Usefulness	Ease of Use	Ease of Use	Ease of Learning	Ease of Learning	Satisfaction	Satisfaction	Usefulness	Usefulness	Ease of Use	Ease of Use	Ease of Learning	Ease of Learning	Satisfaction	Satisfaction	Usefulness	Usefulness	Ease of Use	Ease of Use	Ease of Learning	Ease of Learning	Satisfaction	Satisfaction
	absolute	relative	absolute	relative	absolute	relative	absolute	relative	absolute	relative	absolute	relative	absolute	relative	absolute	relative	absolute	relative	absolute	relative	absolute	relative	absolute	relative
rating																								
strongly disagree	0.0	0.0	1.0	0.0625	0.0	0.0	2.0	0.4	0.0	0.0	1.0	0.16666666666666666	0.0	0.0	0.0	0.0	0.0	0.0	1.0	0.05555555555555555	0.0	0.0	0.0	0.0
--	0.0	0.0	0.0	0.0	0.0	0.0	0.0	0.0	0.0	0.0	2.0	0.3333333333333333	1.0	0.07692307692307693	2.0	0.10526315789473684	0.0	0.0	1.0	0.05555555555555555	0.0	0.0	0.0	0.0
-	0.0	0.0	3.0	0.1875	3.0	0.5	0.0	0.0	0.0	0.0	3.0	0.5	6.0	0.46153846153846156	4.0	0.21052631578947367	0.0	0.0	0.0	0.0	4.0	0.2857142857142857	4.0	0.19047619047619047
0	0.0	0.0	0.0	0.0	0.0	0.0	0.0	0.0	5.0	0.5555555555555556	0.0	0.0	6.0	0.46153846153846156	13.0	0.6842105263157895	1.0	0.1	8.0	0.4444444444444444	5.0	0.35714285714285715	5.0	0.23809523809523808
+	0.0	0.0	12.0	0.75	1.0	0.16666666666666666	3.0	0.6	0.0	0.0	0.0	0.0	0.0	0.0	0.0	0.0	0.0	0.0	8.0	0.4444444444444444	5.0	0.35714285714285715	12.0	0.5714285714285714
++	3.0	0.375	0.0	0.0	2.0	0.3333333333333333	0.0	0.0	4.0	0.4444444444444444	0.0	0.0	0.0	0.0	0.0	0.0	9.0	0.9	0.0	0.0	0.0	0.0	0.0	0.0
strongly agree	5.0	0.625	0.0	0.0	0.0	0.0	0.0	0.0	0.0	0.0	0.0	0.0	0.0	0.0	0.0	0.0	0.0	0.0	0.0	0.0	0.0	0.0	0.0	0.0
n/a	0.0	0.0	0.0	0.0	0.0	0.0	0.0	0.0	0.0	0.0	0.0	0.0	0.0	0.0	0.0	0.0	0.0	0.0	0.0	0.0	0.0	0.0	0.0	0.0
