<?xml version="1.0" encoding="utf-8" standalone="no"?>
<!DOCTYPE svg PUBLIC "-//W3C//DTD SVG 1.1//EN"
  "http://www.w3.org/Graphics/SVG/1.1/DTD/svg11.dtd">
<svg xmlns:xlink="http://www.w3.org/1999/xlink" width="262.8pt" height="460.8pt" viewBox="0 0 262.8 460.8" xmlns="http://www.w3.org/2000/svg" version="1.1">
 <metadata>
  <rdf:RDF xmlns:dc="http://purl.org/dc/elements/1.1/" xmlns:cc="http://creativecommons.org/ns#" xmlns:rdf="http://www.w3.org/1999/02/22-rdf-syntax-ns#">
   <cc:Work>
    <dc:type rdf:resource="http://purl.org/dc/dcmitype/StillImage"/>
    <dc:date>2022-09-22T16:14:20.172524</dc:date>
    <dc:format>image/svg+xml</dc:format>
    <dc:creator>
     <cc:Agent>
      <dc:title>Matplotlib v3.5.3, https://matplotlib.org/</dc:title>
     </cc:Agent>
    </dc:creator>
   </cc:Work>
  </rdf:RDF>
 </metadata>
 <defs>
  <style type="text/css">*{stroke-linejoin: round; stroke-linecap: butt}</style>
 </defs>
 <g id="figure_1">
  <g id="patch_1">
   <path d="M 0 460.8 
L 262.8 460.8 
L 262.8 0 
L 0 0 
z
" style="fill: #ffffff"/>
  </g>
  <g id="axes_1">
   <g id="patch_2">
    <path d="M 97.2 345.6 
L 248.4 345.6 
L 248.4 36 
L 97.2 36 
z
" style="fill: #ffffff"/>
   </g>
   <g id="matplotlib.axis_1">
    <g id="xtick_1">
     <g id="line2d_1">
      <defs>
       <path id="mb3ba38d712" d="M 0 0 
L 0 3.5 
" style="stroke: #000000; stroke-width: 0.8"/>
      </defs>
      <g>
       <use xlink:href="#mb3ba38d712" x="122.4" y="345.6" style="stroke: #000000; stroke-width: 0.8"/>
      </g>
     </g>
     <g id="text_1">
      <!-- 02_ROS_LineFollowing -->
      <g transform="translate(41.848384 436.857297)rotate(-45)scale(0.1 -0.1)">
       <defs>
        <path id="DejaVuSans-30" d="M 2034 4250 
Q 1547 4250 1301 3770 
Q 1056 3291 1056 2328 
Q 1056 1369 1301 889 
Q 1547 409 2034 409 
Q 2525 409 2770 889 
Q 3016 1369 3016 2328 
Q 3016 3291 2770 3770 
Q 2525 4250 2034 4250 
z
M 2034 4750 
Q 2819 4750 3233 4129 
Q 3647 3509 3647 2328 
Q 3647 1150 3233 529 
Q 2819 -91 2034 -91 
Q 1250 -91 836 529 
Q 422 1150 422 2328 
Q 422 3509 836 4129 
Q 1250 4750 2034 4750 
z
" transform="scale(0.015625)"/>
        <path id="DejaVuSans-32" d="M 1228 531 
L 3431 531 
L 3431 0 
L 469 0 
L 469 531 
Q 828 903 1448 1529 
Q 2069 2156 2228 2338 
Q 2531 2678 2651 2914 
Q 2772 3150 2772 3378 
Q 2772 3750 2511 3984 
Q 2250 4219 1831 4219 
Q 1534 4219 1204 4116 
Q 875 4013 500 3803 
L 500 4441 
Q 881 4594 1212 4672 
Q 1544 4750 1819 4750 
Q 2544 4750 2975 4387 
Q 3406 4025 3406 3419 
Q 3406 3131 3298 2873 
Q 3191 2616 2906 2266 
Q 2828 2175 2409 1742 
Q 1991 1309 1228 531 
z
" transform="scale(0.015625)"/>
        <path id="DejaVuSans-5f" d="M 3263 -1063 
L 3263 -1509 
L -63 -1509 
L -63 -1063 
L 3263 -1063 
z
" transform="scale(0.015625)"/>
        <path id="DejaVuSans-52" d="M 2841 2188 
Q 3044 2119 3236 1894 
Q 3428 1669 3622 1275 
L 4263 0 
L 3584 0 
L 2988 1197 
Q 2756 1666 2539 1819 
Q 2322 1972 1947 1972 
L 1259 1972 
L 1259 0 
L 628 0 
L 628 4666 
L 2053 4666 
Q 2853 4666 3247 4331 
Q 3641 3997 3641 3322 
Q 3641 2881 3436 2590 
Q 3231 2300 2841 2188 
z
M 1259 4147 
L 1259 2491 
L 2053 2491 
Q 2509 2491 2742 2702 
Q 2975 2913 2975 3322 
Q 2975 3731 2742 3939 
Q 2509 4147 2053 4147 
L 1259 4147 
z
" transform="scale(0.015625)"/>
        <path id="DejaVuSans-4f" d="M 2522 4238 
Q 1834 4238 1429 3725 
Q 1025 3213 1025 2328 
Q 1025 1447 1429 934 
Q 1834 422 2522 422 
Q 3209 422 3611 934 
Q 4013 1447 4013 2328 
Q 4013 3213 3611 3725 
Q 3209 4238 2522 4238 
z
M 2522 4750 
Q 3503 4750 4090 4092 
Q 4678 3434 4678 2328 
Q 4678 1225 4090 567 
Q 3503 -91 2522 -91 
Q 1538 -91 948 565 
Q 359 1222 359 2328 
Q 359 3434 948 4092 
Q 1538 4750 2522 4750 
z
" transform="scale(0.015625)"/>
        <path id="DejaVuSans-53" d="M 3425 4513 
L 3425 3897 
Q 3066 4069 2747 4153 
Q 2428 4238 2131 4238 
Q 1616 4238 1336 4038 
Q 1056 3838 1056 3469 
Q 1056 3159 1242 3001 
Q 1428 2844 1947 2747 
L 2328 2669 
Q 3034 2534 3370 2195 
Q 3706 1856 3706 1288 
Q 3706 609 3251 259 
Q 2797 -91 1919 -91 
Q 1588 -91 1214 -16 
Q 841 59 441 206 
L 441 856 
Q 825 641 1194 531 
Q 1563 422 1919 422 
Q 2459 422 2753 634 
Q 3047 847 3047 1241 
Q 3047 1584 2836 1778 
Q 2625 1972 2144 2069 
L 1759 2144 
Q 1053 2284 737 2584 
Q 422 2884 422 3419 
Q 422 4038 858 4394 
Q 1294 4750 2059 4750 
Q 2388 4750 2728 4690 
Q 3069 4631 3425 4513 
z
" transform="scale(0.015625)"/>
        <path id="DejaVuSans-4c" d="M 628 4666 
L 1259 4666 
L 1259 531 
L 3531 531 
L 3531 0 
L 628 0 
L 628 4666 
z
" transform="scale(0.015625)"/>
        <path id="DejaVuSans-69" d="M 603 3500 
L 1178 3500 
L 1178 0 
L 603 0 
L 603 3500 
z
M 603 4863 
L 1178 4863 
L 1178 4134 
L 603 4134 
L 603 4863 
z
" transform="scale(0.015625)"/>
        <path id="DejaVuSans-6e" d="M 3513 2113 
L 3513 0 
L 2938 0 
L 2938 2094 
Q 2938 2591 2744 2837 
Q 2550 3084 2163 3084 
Q 1697 3084 1428 2787 
Q 1159 2491 1159 1978 
L 1159 0 
L 581 0 
L 581 3500 
L 1159 3500 
L 1159 2956 
Q 1366 3272 1645 3428 
Q 1925 3584 2291 3584 
Q 2894 3584 3203 3211 
Q 3513 2838 3513 2113 
z
" transform="scale(0.015625)"/>
        <path id="DejaVuSans-65" d="M 3597 1894 
L 3597 1613 
L 953 1613 
Q 991 1019 1311 708 
Q 1631 397 2203 397 
Q 2534 397 2845 478 
Q 3156 559 3463 722 
L 3463 178 
Q 3153 47 2828 -22 
Q 2503 -91 2169 -91 
Q 1331 -91 842 396 
Q 353 884 353 1716 
Q 353 2575 817 3079 
Q 1281 3584 2069 3584 
Q 2775 3584 3186 3129 
Q 3597 2675 3597 1894 
z
M 3022 2063 
Q 3016 2534 2758 2815 
Q 2500 3097 2075 3097 
Q 1594 3097 1305 2825 
Q 1016 2553 972 2059 
L 3022 2063 
z
" transform="scale(0.015625)"/>
        <path id="DejaVuSans-46" d="M 628 4666 
L 3309 4666 
L 3309 4134 
L 1259 4134 
L 1259 2759 
L 3109 2759 
L 3109 2228 
L 1259 2228 
L 1259 0 
L 628 0 
L 628 4666 
z
" transform="scale(0.015625)"/>
        <path id="DejaVuSans-6f" d="M 1959 3097 
Q 1497 3097 1228 2736 
Q 959 2375 959 1747 
Q 959 1119 1226 758 
Q 1494 397 1959 397 
Q 2419 397 2687 759 
Q 2956 1122 2956 1747 
Q 2956 2369 2687 2733 
Q 2419 3097 1959 3097 
z
M 1959 3584 
Q 2709 3584 3137 3096 
Q 3566 2609 3566 1747 
Q 3566 888 3137 398 
Q 2709 -91 1959 -91 
Q 1206 -91 779 398 
Q 353 888 353 1747 
Q 353 2609 779 3096 
Q 1206 3584 1959 3584 
z
" transform="scale(0.015625)"/>
        <path id="DejaVuSans-6c" d="M 603 4863 
L 1178 4863 
L 1178 0 
L 603 0 
L 603 4863 
z
" transform="scale(0.015625)"/>
        <path id="DejaVuSans-77" d="M 269 3500 
L 844 3500 
L 1563 769 
L 2278 3500 
L 2956 3500 
L 3675 769 
L 4391 3500 
L 4966 3500 
L 4050 0 
L 3372 0 
L 2619 2869 
L 1863 0 
L 1184 0 
L 269 3500 
z
" transform="scale(0.015625)"/>
        <path id="DejaVuSans-67" d="M 2906 1791 
Q 2906 2416 2648 2759 
Q 2391 3103 1925 3103 
Q 1463 3103 1205 2759 
Q 947 2416 947 1791 
Q 947 1169 1205 825 
Q 1463 481 1925 481 
Q 2391 481 2648 825 
Q 2906 1169 2906 1791 
z
M 3481 434 
Q 3481 -459 3084 -895 
Q 2688 -1331 1869 -1331 
Q 1566 -1331 1297 -1286 
Q 1028 -1241 775 -1147 
L 775 -588 
Q 1028 -725 1275 -790 
Q 1522 -856 1778 -856 
Q 2344 -856 2625 -561 
Q 2906 -266 2906 331 
L 2906 616 
Q 2728 306 2450 153 
Q 2172 0 1784 0 
Q 1141 0 747 490 
Q 353 981 353 1791 
Q 353 2603 747 3093 
Q 1141 3584 1784 3584 
Q 2172 3584 2450 3431 
Q 2728 3278 2906 2969 
L 2906 3500 
L 3481 3500 
L 3481 434 
z
" transform="scale(0.015625)"/>
       </defs>
       <use xlink:href="#DejaVuSans-30"/>
       <use xlink:href="#DejaVuSans-32" x="63.623047"/>
       <use xlink:href="#DejaVuSans-5f" x="127.246094"/>
       <use xlink:href="#DejaVuSans-52" x="177.246094"/>
       <use xlink:href="#DejaVuSans-4f" x="246.728516"/>
       <use xlink:href="#DejaVuSans-53" x="325.439453"/>
       <use xlink:href="#DejaVuSans-5f" x="388.916016"/>
       <use xlink:href="#DejaVuSans-4c" x="438.916016"/>
       <use xlink:href="#DejaVuSans-69" x="494.628906"/>
       <use xlink:href="#DejaVuSans-6e" x="522.412109"/>
       <use xlink:href="#DejaVuSans-65" x="585.791016"/>
       <use xlink:href="#DejaVuSans-46" x="647.314453"/>
       <use xlink:href="#DejaVuSans-6f" x="701.208984"/>
       <use xlink:href="#DejaVuSans-6c" x="762.390625"/>
       <use xlink:href="#DejaVuSans-6c" x="790.173828"/>
       <use xlink:href="#DejaVuSans-6f" x="817.957031"/>
       <use xlink:href="#DejaVuSans-77" x="879.138672"/>
       <use xlink:href="#DejaVuSans-69" x="960.925781"/>
       <use xlink:href="#DejaVuSans-6e" x="988.708984"/>
       <use xlink:href="#DejaVuSans-67" x="1052.087891"/>
      </g>
     </g>
    </g>
    <g id="xtick_2">
     <g id="line2d_2">
      <g>
       <use xlink:href="#mb3ba38d712" x="172.8" y="345.6" style="stroke: #000000; stroke-width: 0.8"/>
      </g>
     </g>
     <g id="text_2">
      <!-- 03_uRT_Tutorial -->
      <g transform="translate(115.864646 413.241036)rotate(-45)scale(0.1 -0.1)">
       <defs>
        <path id="DejaVuSans-33" d="M 2597 2516 
Q 3050 2419 3304 2112 
Q 3559 1806 3559 1356 
Q 3559 666 3084 287 
Q 2609 -91 1734 -91 
Q 1441 -91 1130 -33 
Q 819 25 488 141 
L 488 750 
Q 750 597 1062 519 
Q 1375 441 1716 441 
Q 2309 441 2620 675 
Q 2931 909 2931 1356 
Q 2931 1769 2642 2001 
Q 2353 2234 1838 2234 
L 1294 2234 
L 1294 2753 
L 1863 2753 
Q 2328 2753 2575 2939 
Q 2822 3125 2822 3475 
Q 2822 3834 2567 4026 
Q 2313 4219 1838 4219 
Q 1578 4219 1281 4162 
Q 984 4106 628 3988 
L 628 4550 
Q 988 4650 1302 4700 
Q 1616 4750 1894 4750 
Q 2613 4750 3031 4423 
Q 3450 4097 3450 3541 
Q 3450 3153 3228 2886 
Q 3006 2619 2597 2516 
z
" transform="scale(0.015625)"/>
        <path id="DejaVuSans-75" d="M 544 1381 
L 544 3500 
L 1119 3500 
L 1119 1403 
Q 1119 906 1312 657 
Q 1506 409 1894 409 
Q 2359 409 2629 706 
Q 2900 1003 2900 1516 
L 2900 3500 
L 3475 3500 
L 3475 0 
L 2900 0 
L 2900 538 
Q 2691 219 2414 64 
Q 2138 -91 1772 -91 
Q 1169 -91 856 284 
Q 544 659 544 1381 
z
M 1991 3584 
L 1991 3584 
z
" transform="scale(0.015625)"/>
        <path id="DejaVuSans-54" d="M -19 4666 
L 3928 4666 
L 3928 4134 
L 2272 4134 
L 2272 0 
L 1638 0 
L 1638 4134 
L -19 4134 
L -19 4666 
z
" transform="scale(0.015625)"/>
        <path id="DejaVuSans-74" d="M 1172 4494 
L 1172 3500 
L 2356 3500 
L 2356 3053 
L 1172 3053 
L 1172 1153 
Q 1172 725 1289 603 
Q 1406 481 1766 481 
L 2356 481 
L 2356 0 
L 1766 0 
Q 1100 0 847 248 
Q 594 497 594 1153 
L 594 3053 
L 172 3053 
L 172 3500 
L 594 3500 
L 594 4494 
L 1172 4494 
z
" transform="scale(0.015625)"/>
        <path id="DejaVuSans-72" d="M 2631 2963 
Q 2534 3019 2420 3045 
Q 2306 3072 2169 3072 
Q 1681 3072 1420 2755 
Q 1159 2438 1159 1844 
L 1159 0 
L 581 0 
L 581 3500 
L 1159 3500 
L 1159 2956 
Q 1341 3275 1631 3429 
Q 1922 3584 2338 3584 
Q 2397 3584 2469 3576 
Q 2541 3569 2628 3553 
L 2631 2963 
z
" transform="scale(0.015625)"/>
        <path id="DejaVuSans-61" d="M 2194 1759 
Q 1497 1759 1228 1600 
Q 959 1441 959 1056 
Q 959 750 1161 570 
Q 1363 391 1709 391 
Q 2188 391 2477 730 
Q 2766 1069 2766 1631 
L 2766 1759 
L 2194 1759 
z
M 3341 1997 
L 3341 0 
L 2766 0 
L 2766 531 
Q 2569 213 2275 61 
Q 1981 -91 1556 -91 
Q 1019 -91 701 211 
Q 384 513 384 1019 
Q 384 1609 779 1909 
Q 1175 2209 1959 2209 
L 2766 2209 
L 2766 2266 
Q 2766 2663 2505 2880 
Q 2244 3097 1772 3097 
Q 1472 3097 1187 3025 
Q 903 2953 641 2809 
L 641 3341 
Q 956 3463 1253 3523 
Q 1550 3584 1831 3584 
Q 2591 3584 2966 3190 
Q 3341 2797 3341 1997 
z
" transform="scale(0.015625)"/>
       </defs>
       <use xlink:href="#DejaVuSans-30"/>
       <use xlink:href="#DejaVuSans-33" x="63.623047"/>
       <use xlink:href="#DejaVuSans-5f" x="127.246094"/>
       <use xlink:href="#DejaVuSans-75" x="177.246094"/>
       <use xlink:href="#DejaVuSans-52" x="240.625"/>
       <use xlink:href="#DejaVuSans-54" x="302.857422"/>
       <use xlink:href="#DejaVuSans-5f" x="363.941406"/>
       <use xlink:href="#DejaVuSans-54" x="413.941406"/>
       <use xlink:href="#DejaVuSans-75" x="459.900391"/>
       <use xlink:href="#DejaVuSans-74" x="523.279297"/>
       <use xlink:href="#DejaVuSans-6f" x="562.488281"/>
       <use xlink:href="#DejaVuSans-72" x="623.669922"/>
       <use xlink:href="#DejaVuSans-69" x="664.783203"/>
       <use xlink:href="#DejaVuSans-61" x="692.566406"/>
       <use xlink:href="#DejaVuSans-6c" x="753.845703"/>
      </g>
     </g>
    </g>
    <g id="xtick_3">
     <g id="line2d_3">
      <g>
       <use xlink:href="#mb3ba38d712" x="223.2" y="345.6" style="stroke: #000000; stroke-width: 0.8"/>
      </g>
     </g>
     <g id="text_3">
      <!-- 04_uRT_LineFollowing -->
      <g transform="translate(144.416151 435.08953)rotate(-45)scale(0.1 -0.1)">
       <defs>
        <path id="DejaVuSans-34" d="M 2419 4116 
L 825 1625 
L 2419 1625 
L 2419 4116 
z
M 2253 4666 
L 3047 4666 
L 3047 1625 
L 3713 1625 
L 3713 1100 
L 3047 1100 
L 3047 0 
L 2419 0 
L 2419 1100 
L 313 1100 
L 313 1709 
L 2253 4666 
z
" transform="scale(0.015625)"/>
       </defs>
       <use xlink:href="#DejaVuSans-30"/>
       <use xlink:href="#DejaVuSans-34" x="63.623047"/>
       <use xlink:href="#DejaVuSans-5f" x="127.246094"/>
       <use xlink:href="#DejaVuSans-75" x="177.246094"/>
       <use xlink:href="#DejaVuSans-52" x="240.625"/>
       <use xlink:href="#DejaVuSans-54" x="302.857422"/>
       <use xlink:href="#DejaVuSans-5f" x="363.941406"/>
       <use xlink:href="#DejaVuSans-4c" x="413.941406"/>
       <use xlink:href="#DejaVuSans-69" x="469.654297"/>
       <use xlink:href="#DejaVuSans-6e" x="497.4375"/>
       <use xlink:href="#DejaVuSans-65" x="560.816406"/>
       <use xlink:href="#DejaVuSans-46" x="622.339844"/>
       <use xlink:href="#DejaVuSans-6f" x="676.234375"/>
       <use xlink:href="#DejaVuSans-6c" x="737.416016"/>
       <use xlink:href="#DejaVuSans-6c" x="765.199219"/>
       <use xlink:href="#DejaVuSans-6f" x="792.982422"/>
       <use xlink:href="#DejaVuSans-77" x="854.164062"/>
       <use xlink:href="#DejaVuSans-69" x="935.951172"/>
       <use xlink:href="#DejaVuSans-6e" x="963.734375"/>
       <use xlink:href="#DejaVuSans-67" x="1027.113281"/>
      </g>
     </g>
    </g>
    <g id="text_4">
     <!-- questionnaire -->
     <g transform="translate(138.557031 450.12296)scale(0.1 -0.1)">
      <defs>
       <path id="DejaVuSans-71" d="M 947 1747 
Q 947 1113 1208 752 
Q 1469 391 1925 391 
Q 2381 391 2643 752 
Q 2906 1113 2906 1747 
Q 2906 2381 2643 2742 
Q 2381 3103 1925 3103 
Q 1469 3103 1208 2742 
Q 947 2381 947 1747 
z
M 2906 525 
Q 2725 213 2448 61 
Q 2172 -91 1784 -91 
Q 1150 -91 751 415 
Q 353 922 353 1747 
Q 353 2572 751 3078 
Q 1150 3584 1784 3584 
Q 2172 3584 2448 3432 
Q 2725 3281 2906 2969 
L 2906 3500 
L 3481 3500 
L 3481 -1331 
L 2906 -1331 
L 2906 525 
z
" transform="scale(0.015625)"/>
       <path id="DejaVuSans-73" d="M 2834 3397 
L 2834 2853 
Q 2591 2978 2328 3040 
Q 2066 3103 1784 3103 
Q 1356 3103 1142 2972 
Q 928 2841 928 2578 
Q 928 2378 1081 2264 
Q 1234 2150 1697 2047 
L 1894 2003 
Q 2506 1872 2764 1633 
Q 3022 1394 3022 966 
Q 3022 478 2636 193 
Q 2250 -91 1575 -91 
Q 1294 -91 989 -36 
Q 684 19 347 128 
L 347 722 
Q 666 556 975 473 
Q 1284 391 1588 391 
Q 1994 391 2212 530 
Q 2431 669 2431 922 
Q 2431 1156 2273 1281 
Q 2116 1406 1581 1522 
L 1381 1569 
Q 847 1681 609 1914 
Q 372 2147 372 2553 
Q 372 3047 722 3315 
Q 1072 3584 1716 3584 
Q 2034 3584 2315 3537 
Q 2597 3491 2834 3397 
z
" transform="scale(0.015625)"/>
      </defs>
      <use xlink:href="#DejaVuSans-71"/>
      <use xlink:href="#DejaVuSans-75" x="63.476562"/>
      <use xlink:href="#DejaVuSans-65" x="126.855469"/>
      <use xlink:href="#DejaVuSans-73" x="188.378906"/>
      <use xlink:href="#DejaVuSans-74" x="240.478516"/>
      <use xlink:href="#DejaVuSans-69" x="279.6875"/>
      <use xlink:href="#DejaVuSans-6f" x="307.470703"/>
      <use xlink:href="#DejaVuSans-6e" x="368.652344"/>
      <use xlink:href="#DejaVuSans-6e" x="432.03125"/>
      <use xlink:href="#DejaVuSans-61" x="495.410156"/>
      <use xlink:href="#DejaVuSans-69" x="556.689453"/>
      <use xlink:href="#DejaVuSans-72" x="584.472656"/>
      <use xlink:href="#DejaVuSans-65" x="623.335938"/>
     </g>
    </g>
   </g>
   <g id="matplotlib.axis_2">
    <g id="ytick_1">
     <g id="line2d_4">
      <defs>
       <path id="m07dc82dda6" d="M 0 0 
L -3.5 0 
" style="stroke: #000000; stroke-width: 0.8"/>
      </defs>
      <g>
       <use xlink:href="#m07dc82dda6" x="97.2" y="345.6" style="stroke: #000000; stroke-width: 0.8"/>
      </g>
     </g>
     <g id="text_5">
      <!-- 0 to 0.5 hours -->
      <g transform="translate(20.246875 349.399219)scale(0.1 -0.1)">
       <defs>
        <path id="DejaVuSans-20" transform="scale(0.015625)"/>
        <path id="DejaVuSans-2e" d="M 684 794 
L 1344 794 
L 1344 0 
L 684 0 
L 684 794 
z
" transform="scale(0.015625)"/>
        <path id="DejaVuSans-35" d="M 691 4666 
L 3169 4666 
L 3169 4134 
L 1269 4134 
L 1269 2991 
Q 1406 3038 1543 3061 
Q 1681 3084 1819 3084 
Q 2600 3084 3056 2656 
Q 3513 2228 3513 1497 
Q 3513 744 3044 326 
Q 2575 -91 1722 -91 
Q 1428 -91 1123 -41 
Q 819 9 494 109 
L 494 744 
Q 775 591 1075 516 
Q 1375 441 1709 441 
Q 2250 441 2565 725 
Q 2881 1009 2881 1497 
Q 2881 1984 2565 2268 
Q 2250 2553 1709 2553 
Q 1456 2553 1204 2497 
Q 953 2441 691 2322 
L 691 4666 
z
" transform="scale(0.015625)"/>
        <path id="DejaVuSans-68" d="M 3513 2113 
L 3513 0 
L 2938 0 
L 2938 2094 
Q 2938 2591 2744 2837 
Q 2550 3084 2163 3084 
Q 1697 3084 1428 2787 
Q 1159 2491 1159 1978 
L 1159 0 
L 581 0 
L 581 4863 
L 1159 4863 
L 1159 2956 
Q 1366 3272 1645 3428 
Q 1925 3584 2291 3584 
Q 2894 3584 3203 3211 
Q 3513 2838 3513 2113 
z
" transform="scale(0.015625)"/>
       </defs>
       <use xlink:href="#DejaVuSans-30"/>
       <use xlink:href="#DejaVuSans-20" x="63.623047"/>
       <use xlink:href="#DejaVuSans-74" x="95.410156"/>
       <use xlink:href="#DejaVuSans-6f" x="134.619141"/>
       <use xlink:href="#DejaVuSans-20" x="195.800781"/>
       <use xlink:href="#DejaVuSans-30" x="227.587891"/>
       <use xlink:href="#DejaVuSans-2e" x="291.210938"/>
       <use xlink:href="#DejaVuSans-35" x="322.998047"/>
       <use xlink:href="#DejaVuSans-20" x="386.621094"/>
       <use xlink:href="#DejaVuSans-68" x="418.408203"/>
       <use xlink:href="#DejaVuSans-6f" x="481.787109"/>
       <use xlink:href="#DejaVuSans-75" x="542.96875"/>
       <use xlink:href="#DejaVuSans-72" x="606.347656"/>
       <use xlink:href="#DejaVuSans-73" x="647.460938"/>
      </g>
     </g>
    </g>
    <g id="ytick_2">
     <g id="line2d_5">
      <g>
       <use xlink:href="#m07dc82dda6" x="97.2" y="296.064" style="stroke: #000000; stroke-width: 0.8"/>
      </g>
     </g>
     <g id="text_6">
      <!-- 0.5 to 1 hours -->
      <g transform="translate(20.246875 299.863219)scale(0.1 -0.1)">
       <defs>
        <path id="DejaVuSans-31" d="M 794 531 
L 1825 531 
L 1825 4091 
L 703 3866 
L 703 4441 
L 1819 4666 
L 2450 4666 
L 2450 531 
L 3481 531 
L 3481 0 
L 794 0 
L 794 531 
z
" transform="scale(0.015625)"/>
       </defs>
       <use xlink:href="#DejaVuSans-30"/>
       <use xlink:href="#DejaVuSans-2e" x="63.623047"/>
       <use xlink:href="#DejaVuSans-35" x="95.410156"/>
       <use xlink:href="#DejaVuSans-20" x="159.033203"/>
       <use xlink:href="#DejaVuSans-74" x="190.820312"/>
       <use xlink:href="#DejaVuSans-6f" x="230.029297"/>
       <use xlink:href="#DejaVuSans-20" x="291.210938"/>
       <use xlink:href="#DejaVuSans-31" x="322.998047"/>
       <use xlink:href="#DejaVuSans-20" x="386.621094"/>
       <use xlink:href="#DejaVuSans-68" x="418.408203"/>
       <use xlink:href="#DejaVuSans-6f" x="481.787109"/>
       <use xlink:href="#DejaVuSans-75" x="542.96875"/>
       <use xlink:href="#DejaVuSans-72" x="606.347656"/>
       <use xlink:href="#DejaVuSans-73" x="647.460938"/>
      </g>
     </g>
    </g>
    <g id="ytick_3">
     <g id="line2d_6">
      <g>
       <use xlink:href="#m07dc82dda6" x="97.2" y="246.528" style="stroke: #000000; stroke-width: 0.8"/>
      </g>
     </g>
     <g id="text_7">
      <!-- 1 to 1.5 hours -->
      <g transform="translate(20.246875 250.327219)scale(0.1 -0.1)">
       <use xlink:href="#DejaVuSans-31"/>
       <use xlink:href="#DejaVuSans-20" x="63.623047"/>
       <use xlink:href="#DejaVuSans-74" x="95.410156"/>
       <use xlink:href="#DejaVuSans-6f" x="134.619141"/>
       <use xlink:href="#DejaVuSans-20" x="195.800781"/>
       <use xlink:href="#DejaVuSans-31" x="227.587891"/>
       <use xlink:href="#DejaVuSans-2e" x="291.210938"/>
       <use xlink:href="#DejaVuSans-35" x="322.998047"/>
       <use xlink:href="#DejaVuSans-20" x="386.621094"/>
       <use xlink:href="#DejaVuSans-68" x="418.408203"/>
       <use xlink:href="#DejaVuSans-6f" x="481.787109"/>
       <use xlink:href="#DejaVuSans-75" x="542.96875"/>
       <use xlink:href="#DejaVuSans-72" x="606.347656"/>
       <use xlink:href="#DejaVuSans-73" x="647.460938"/>
      </g>
     </g>
    </g>
    <g id="ytick_4">
     <g id="line2d_7">
      <g>
       <use xlink:href="#m07dc82dda6" x="97.2" y="196.992" style="stroke: #000000; stroke-width: 0.8"/>
      </g>
     </g>
     <g id="text_8">
      <!-- 1.5 to 2 hours -->
      <g transform="translate(20.246875 200.791219)scale(0.1 -0.1)">
       <use xlink:href="#DejaVuSans-31"/>
       <use xlink:href="#DejaVuSans-2e" x="63.623047"/>
       <use xlink:href="#DejaVuSans-35" x="95.410156"/>
       <use xlink:href="#DejaVuSans-20" x="159.033203"/>
       <use xlink:href="#DejaVuSans-74" x="190.820312"/>
       <use xlink:href="#DejaVuSans-6f" x="230.029297"/>
       <use xlink:href="#DejaVuSans-20" x="291.210938"/>
       <use xlink:href="#DejaVuSans-32" x="322.998047"/>
       <use xlink:href="#DejaVuSans-20" x="386.621094"/>
       <use xlink:href="#DejaVuSans-68" x="418.408203"/>
       <use xlink:href="#DejaVuSans-6f" x="481.787109"/>
       <use xlink:href="#DejaVuSans-75" x="542.96875"/>
       <use xlink:href="#DejaVuSans-72" x="606.347656"/>
       <use xlink:href="#DejaVuSans-73" x="647.460938"/>
      </g>
     </g>
    </g>
    <g id="ytick_5">
     <g id="line2d_8">
      <g>
       <use xlink:href="#m07dc82dda6" x="97.2" y="147.456" style="stroke: #000000; stroke-width: 0.8"/>
      </g>
     </g>
     <g id="text_9">
      <!-- 2 to 2.5 hours -->
      <g transform="translate(20.246875 151.255219)scale(0.1 -0.1)">
       <use xlink:href="#DejaVuSans-32"/>
       <use xlink:href="#DejaVuSans-20" x="63.623047"/>
       <use xlink:href="#DejaVuSans-74" x="95.410156"/>
       <use xlink:href="#DejaVuSans-6f" x="134.619141"/>
       <use xlink:href="#DejaVuSans-20" x="195.800781"/>
       <use xlink:href="#DejaVuSans-32" x="227.587891"/>
       <use xlink:href="#DejaVuSans-2e" x="291.210938"/>
       <use xlink:href="#DejaVuSans-35" x="322.998047"/>
       <use xlink:href="#DejaVuSans-20" x="386.621094"/>
       <use xlink:href="#DejaVuSans-68" x="418.408203"/>
       <use xlink:href="#DejaVuSans-6f" x="481.787109"/>
       <use xlink:href="#DejaVuSans-75" x="542.96875"/>
       <use xlink:href="#DejaVuSans-72" x="606.347656"/>
       <use xlink:href="#DejaVuSans-73" x="647.460938"/>
      </g>
     </g>
    </g>
    <g id="ytick_6">
     <g id="line2d_9">
      <g>
       <use xlink:href="#m07dc82dda6" x="97.2" y="97.92" style="stroke: #000000; stroke-width: 0.8"/>
      </g>
     </g>
     <g id="text_10">
      <!-- 2.5 to 3 hours -->
      <g transform="translate(20.246875 101.719219)scale(0.1 -0.1)">
       <use xlink:href="#DejaVuSans-32"/>
       <use xlink:href="#DejaVuSans-2e" x="63.623047"/>
       <use xlink:href="#DejaVuSans-35" x="95.410156"/>
       <use xlink:href="#DejaVuSans-20" x="159.033203"/>
       <use xlink:href="#DejaVuSans-74" x="190.820312"/>
       <use xlink:href="#DejaVuSans-6f" x="230.029297"/>
       <use xlink:href="#DejaVuSans-20" x="291.210938"/>
       <use xlink:href="#DejaVuSans-33" x="322.998047"/>
       <use xlink:href="#DejaVuSans-20" x="386.621094"/>
       <use xlink:href="#DejaVuSans-68" x="418.408203"/>
       <use xlink:href="#DejaVuSans-6f" x="481.787109"/>
       <use xlink:href="#DejaVuSans-75" x="542.96875"/>
       <use xlink:href="#DejaVuSans-72" x="606.347656"/>
       <use xlink:href="#DejaVuSans-73" x="647.460938"/>
      </g>
     </g>
    </g>
    <g id="ytick_7">
     <g id="line2d_10">
      <g>
       <use xlink:href="#m07dc82dda6" x="97.2" y="48.384" style="stroke: #000000; stroke-width: 0.8"/>
      </g>
     </g>
     <g id="text_11">
      <!-- &gt; 3 hours -->
      <g transform="translate(40.9875 52.183219)scale(0.1 -0.1)">
       <defs>
        <path id="DejaVuSans-3e" d="M 678 3150 
L 678 3719 
L 4684 2266 
L 4684 1747 
L 678 294 
L 678 863 
L 3897 2003 
L 678 3150 
z
" transform="scale(0.015625)"/>
       </defs>
       <use xlink:href="#DejaVuSans-3e"/>
       <use xlink:href="#DejaVuSans-20" x="83.789062"/>
       <use xlink:href="#DejaVuSans-33" x="115.576172"/>
       <use xlink:href="#DejaVuSans-20" x="179.199219"/>
       <use xlink:href="#DejaVuSans-68" x="210.986328"/>
       <use xlink:href="#DejaVuSans-6f" x="274.365234"/>
       <use xlink:href="#DejaVuSans-75" x="335.546875"/>
       <use xlink:href="#DejaVuSans-72" x="398.925781"/>
       <use xlink:href="#DejaVuSans-73" x="440.039062"/>
      </g>
     </g>
    </g>
    <g id="text_12">
     <!-- rating -->
     <g transform="translate(14.167188 205.611719)rotate(-90)scale(0.1 -0.1)">
      <use xlink:href="#DejaVuSans-72"/>
      <use xlink:href="#DejaVuSans-61" x="41.113281"/>
      <use xlink:href="#DejaVuSans-74" x="102.392578"/>
      <use xlink:href="#DejaVuSans-69" x="141.601562"/>
      <use xlink:href="#DejaVuSans-6e" x="169.384766"/>
      <use xlink:href="#DejaVuSans-67" x="232.763672"/>
     </g>
    </g>
   </g>
   <g id="patch_3">
    <path d="M 104.76 221.76 
L 140.04 221.76 
L 140.04 184.608 
L 104.76 184.608 
L 104.76 221.76 
z
" clip-path="url(#pe428939c50)" style="fill: #1f77b4; stroke: #000000; stroke-linejoin: miter"/>
   </g>
   <g id="line2d_11">
    <path d="M 122.4 221.76 
L 122.4 221.76 
" clip-path="url(#pe428939c50)" style="fill: none; stroke: #000000; stroke-linecap: square"/>
   </g>
   <g id="line2d_12">
    <path d="M 122.4 184.608 
L 122.4 147.456 
" clip-path="url(#pe428939c50)" style="fill: none; stroke: #000000; stroke-linecap: square"/>
   </g>
   <g id="line2d_13">
    <path d="M 113.58 221.76 
L 131.22 221.76 
" clip-path="url(#pe428939c50)" style="fill: none; stroke: #000000; stroke-linecap: square"/>
   </g>
   <g id="line2d_14">
    <path d="M 113.58 147.456 
L 131.22 147.456 
" clip-path="url(#pe428939c50)" style="fill: none; stroke: #000000; stroke-linecap: square"/>
   </g>
   <g id="line2d_15">
    <defs>
     <path id="m247e606066" d="M 0 3 
C 0.795609 3 1.55874 2.683901 2.12132 2.12132 
C 2.683901 1.55874 3 0.795609 3 0 
C 3 -0.795609 2.683901 -1.55874 2.12132 -2.12132 
C 1.55874 -2.683901 0.795609 -3 0 -3 
C -0.795609 -3 -1.55874 -2.683901 -2.12132 -2.12132 
C -2.683901 -1.55874 -3 -0.795609 -3 0 
C -3 0.795609 -2.683901 1.55874 -2.12132 2.12132 
C -1.55874 2.683901 -0.795609 3 0 3 
z
" style="stroke: #000000"/>
    </defs>
    <g clip-path="url(#pe428939c50)">
     <use xlink:href="#m247e606066" x="122.4" y="296.064" style="fill: #1f77b4; stroke: #000000"/>
    </g>
   </g>
   <g id="patch_4">
    <path d="M 155.16 48.384 
L 190.44 48.384 
L 190.44 48.384 
L 155.16 48.384 
L 155.16 48.384 
z
" clip-path="url(#pe428939c50)" style="fill: #ff7f0e; stroke: #000000; stroke-linejoin: miter"/>
   </g>
   <g id="line2d_16">
    <path d="M 172.8 48.384 
L 172.8 48.384 
" clip-path="url(#pe428939c50)" style="fill: none; stroke: #000000; stroke-linecap: square"/>
   </g>
   <g id="line2d_17">
    <path d="M 172.8 48.384 
L 172.8 48.384 
" clip-path="url(#pe428939c50)" style="fill: none; stroke: #000000; stroke-linecap: square"/>
   </g>
   <g id="line2d_18">
    <path d="M 163.98 48.384 
L 181.62 48.384 
" clip-path="url(#pe428939c50)" style="fill: none; stroke: #000000; stroke-linecap: square"/>
   </g>
   <g id="line2d_19">
    <path d="M 163.98 48.384 
L 181.62 48.384 
" clip-path="url(#pe428939c50)" style="fill: none; stroke: #000000; stroke-linecap: square"/>
   </g>
   <g id="line2d_20"/>
   <g id="patch_5">
    <path d="M 205.56 246.528 
L 240.84 246.528 
L 240.84 135.072 
L 205.56 135.072 
L 205.56 246.528 
z
" clip-path="url(#pe428939c50)" style="fill: #2ca02c; stroke: #000000; stroke-linejoin: miter"/>
   </g>
   <g id="line2d_21">
    <path d="M 223.2 246.528 
L 223.2 246.528 
" clip-path="url(#pe428939c50)" style="fill: none; stroke: #000000; stroke-linecap: square"/>
   </g>
   <g id="line2d_22">
    <path d="M 223.2 135.072 
L 223.2 97.92 
" clip-path="url(#pe428939c50)" style="fill: none; stroke: #000000; stroke-linecap: square"/>
   </g>
   <g id="line2d_23">
    <path d="M 214.38 246.528 
L 232.02 246.528 
" clip-path="url(#pe428939c50)" style="fill: none; stroke: #000000; stroke-linecap: square"/>
   </g>
   <g id="line2d_24">
    <path d="M 214.38 97.92 
L 232.02 97.92 
" clip-path="url(#pe428939c50)" style="fill: none; stroke: #000000; stroke-linecap: square"/>
   </g>
   <g id="line2d_25"/>
   <g id="line2d_26">
    <path d="M 104.76 196.992 
L 140.04 196.992 
" clip-path="url(#pe428939c50)" style="fill: none; stroke: #000000; stroke-width: 2; stroke-linecap: square"/>
   </g>
   <g id="line2d_27">
    <defs>
     <path id="m6c412e2595" d="M -0 4.242641 
L 4.242641 0 
L 0 -4.242641 
L -4.242641 -0 
z
" style="stroke: #000000; stroke-linejoin: miter"/>
    </defs>
    <g clip-path="url(#pe428939c50)">
     <use xlink:href="#m6c412e2595" x="122.4" y="209.376" style="stroke: #000000; stroke-linejoin: miter"/>
    </g>
   </g>
   <g id="line2d_28">
    <path d="M 155.16 48.384 
L 190.44 48.384 
" clip-path="url(#pe428939c50)" style="fill: none; stroke: #000000; stroke-width: 2; stroke-linecap: square"/>
   </g>
   <g id="line2d_29">
    <g clip-path="url(#pe428939c50)">
     <use xlink:href="#m6c412e2595" x="172.8" y="48.384" style="stroke: #000000; stroke-linejoin: miter"/>
    </g>
   </g>
   <g id="line2d_30">
    <path d="M 205.56 196.992 
L 240.84 196.992 
" clip-path="url(#pe428939c50)" style="fill: none; stroke: #000000; stroke-width: 2; stroke-linecap: square"/>
   </g>
   <g id="line2d_31">
    <g clip-path="url(#pe428939c50)">
     <use xlink:href="#m6c412e2595" x="223.2" y="184.608" style="stroke: #000000; stroke-linejoin: miter"/>
    </g>
   </g>
   <g id="patch_6">
    <path d="M 97.2 345.6 
L 97.2 36 
" style="fill: none; stroke: #000000; stroke-width: 0.8; stroke-linejoin: miter; stroke-linecap: square"/>
   </g>
   <g id="patch_7">
    <path d="M 248.4 345.6 
L 248.4 36 
" style="fill: none; stroke: #000000; stroke-width: 0.8; stroke-linejoin: miter; stroke-linecap: square"/>
   </g>
   <g id="patch_8">
    <path d="M 97.2 345.6 
L 248.4 345.6 
" style="fill: none; stroke: #000000; stroke-width: 0.8; stroke-linejoin: miter; stroke-linecap: square"/>
   </g>
   <g id="patch_9">
    <path d="M 97.2 36 
L 248.4 36 
" style="fill: none; stroke: #000000; stroke-width: 0.8; stroke-linejoin: miter; stroke-linecap: square"/>
   </g>
  </g>
  <g id="text_13">
   <!-- Task Experience - Processing Time -->
   <g transform="translate(28.4775 18.334125)scale(0.12 -0.12)">
    <defs>
     <path id="DejaVuSans-6b" d="M 581 4863 
L 1159 4863 
L 1159 1991 
L 2875 3500 
L 3609 3500 
L 1753 1863 
L 3688 0 
L 2938 0 
L 1159 1709 
L 1159 0 
L 581 0 
L 581 4863 
z
" transform="scale(0.015625)"/>
     <path id="DejaVuSans-45" d="M 628 4666 
L 3578 4666 
L 3578 4134 
L 1259 4134 
L 1259 2753 
L 3481 2753 
L 3481 2222 
L 1259 2222 
L 1259 531 
L 3634 531 
L 3634 0 
L 628 0 
L 628 4666 
z
" transform="scale(0.015625)"/>
     <path id="DejaVuSans-78" d="M 3513 3500 
L 2247 1797 
L 3578 0 
L 2900 0 
L 1881 1375 
L 863 0 
L 184 0 
L 1544 1831 
L 300 3500 
L 978 3500 
L 1906 2253 
L 2834 3500 
L 3513 3500 
z
" transform="scale(0.015625)"/>
     <path id="DejaVuSans-70" d="M 1159 525 
L 1159 -1331 
L 581 -1331 
L 581 3500 
L 1159 3500 
L 1159 2969 
Q 1341 3281 1617 3432 
Q 1894 3584 2278 3584 
Q 2916 3584 3314 3078 
Q 3713 2572 3713 1747 
Q 3713 922 3314 415 
Q 2916 -91 2278 -91 
Q 1894 -91 1617 61 
Q 1341 213 1159 525 
z
M 3116 1747 
Q 3116 2381 2855 2742 
Q 2594 3103 2138 3103 
Q 1681 3103 1420 2742 
Q 1159 2381 1159 1747 
Q 1159 1113 1420 752 
Q 1681 391 2138 391 
Q 2594 391 2855 752 
Q 3116 1113 3116 1747 
z
" transform="scale(0.015625)"/>
     <path id="DejaVuSans-63" d="M 3122 3366 
L 3122 2828 
Q 2878 2963 2633 3030 
Q 2388 3097 2138 3097 
Q 1578 3097 1268 2742 
Q 959 2388 959 1747 
Q 959 1106 1268 751 
Q 1578 397 2138 397 
Q 2388 397 2633 464 
Q 2878 531 3122 666 
L 3122 134 
Q 2881 22 2623 -34 
Q 2366 -91 2075 -91 
Q 1284 -91 818 406 
Q 353 903 353 1747 
Q 353 2603 823 3093 
Q 1294 3584 2113 3584 
Q 2378 3584 2631 3529 
Q 2884 3475 3122 3366 
z
" transform="scale(0.015625)"/>
     <path id="DejaVuSans-2d" d="M 313 2009 
L 1997 2009 
L 1997 1497 
L 313 1497 
L 313 2009 
z
" transform="scale(0.015625)"/>
     <path id="DejaVuSans-50" d="M 1259 4147 
L 1259 2394 
L 2053 2394 
Q 2494 2394 2734 2622 
Q 2975 2850 2975 3272 
Q 2975 3691 2734 3919 
Q 2494 4147 2053 4147 
L 1259 4147 
z
M 628 4666 
L 2053 4666 
Q 2838 4666 3239 4311 
Q 3641 3956 3641 3272 
Q 3641 2581 3239 2228 
Q 2838 1875 2053 1875 
L 1259 1875 
L 1259 0 
L 628 0 
L 628 4666 
z
" transform="scale(0.015625)"/>
     <path id="DejaVuSans-6d" d="M 3328 2828 
Q 3544 3216 3844 3400 
Q 4144 3584 4550 3584 
Q 5097 3584 5394 3201 
Q 5691 2819 5691 2113 
L 5691 0 
L 5113 0 
L 5113 2094 
Q 5113 2597 4934 2840 
Q 4756 3084 4391 3084 
Q 3944 3084 3684 2787 
Q 3425 2491 3425 1978 
L 3425 0 
L 2847 0 
L 2847 2094 
Q 2847 2600 2669 2842 
Q 2491 3084 2119 3084 
Q 1678 3084 1418 2786 
Q 1159 2488 1159 1978 
L 1159 0 
L 581 0 
L 581 3500 
L 1159 3500 
L 1159 2956 
Q 1356 3278 1631 3431 
Q 1906 3584 2284 3584 
Q 2666 3584 2933 3390 
Q 3200 3197 3328 2828 
z
" transform="scale(0.015625)"/>
    </defs>
    <use xlink:href="#DejaVuSans-54"/>
    <use xlink:href="#DejaVuSans-61" x="44.583984"/>
    <use xlink:href="#DejaVuSans-73" x="105.863281"/>
    <use xlink:href="#DejaVuSans-6b" x="157.962891"/>
    <use xlink:href="#DejaVuSans-20" x="215.873047"/>
    <use xlink:href="#DejaVuSans-45" x="247.660156"/>
    <use xlink:href="#DejaVuSans-78" x="310.84375"/>
    <use xlink:href="#DejaVuSans-70" x="370.023438"/>
    <use xlink:href="#DejaVuSans-65" x="433.5"/>
    <use xlink:href="#DejaVuSans-72" x="495.023438"/>
    <use xlink:href="#DejaVuSans-69" x="536.136719"/>
    <use xlink:href="#DejaVuSans-65" x="563.919922"/>
    <use xlink:href="#DejaVuSans-6e" x="625.443359"/>
    <use xlink:href="#DejaVuSans-63" x="688.822266"/>
    <use xlink:href="#DejaVuSans-65" x="743.802734"/>
    <use xlink:href="#DejaVuSans-20" x="805.326172"/>
    <use xlink:href="#DejaVuSans-2d" x="837.113281"/>
    <use xlink:href="#DejaVuSans-20" x="873.197266"/>
    <use xlink:href="#DejaVuSans-50" x="904.984375"/>
    <use xlink:href="#DejaVuSans-72" x="963.537109"/>
    <use xlink:href="#DejaVuSans-6f" x="1002.400391"/>
    <use xlink:href="#DejaVuSans-63" x="1063.582031"/>
    <use xlink:href="#DejaVuSans-65" x="1118.5625"/>
    <use xlink:href="#DejaVuSans-73" x="1180.085938"/>
    <use xlink:href="#DejaVuSans-73" x="1232.185547"/>
    <use xlink:href="#DejaVuSans-69" x="1284.285156"/>
    <use xlink:href="#DejaVuSans-6e" x="1312.068359"/>
    <use xlink:href="#DejaVuSans-67" x="1375.447266"/>
    <use xlink:href="#DejaVuSans-20" x="1438.923828"/>
    <use xlink:href="#DejaVuSans-54" x="1470.710938"/>
    <use xlink:href="#DejaVuSans-69" x="1528.669922"/>
    <use xlink:href="#DejaVuSans-6d" x="1556.453125"/>
    <use xlink:href="#DejaVuSans-65" x="1653.865234"/>
   </g>
  </g>
 </g>
 <defs>
  <clipPath id="pe428939c50">
   <rect x="97.2" y="36" width="151.2" height="309.6"/>
  </clipPath>
 </defs>
</svg>
