questionnaire	02_ROS_LineFollowing	02_ROS_LineFollowing	03_uRT_Tutorial	03_uRT_Tutorial	04_uRT_LineFollowing	04_uRT_LineFollowing
	answer	comment	answer	comment	answer	comment
participant						
5	70% - 80%	n/a	80% - 90%	n/a	90% - 100%	n/a
8	90% - 100%	n/a	80% - 90%	n/a	90% - 100%	n/a
15	80% - 90%	ROS was not the problem, I just couldn't find suitable parameters.	70% - 80%	n/a	90% - 100%	n/a
16	70% - 80%	n/a	70% - 80%	n/a	90% - 100%	n/a
20	80% - 90%	n/a	90% - 100%	n/a	90% - 100%	n/a
