<?xml version="1.0" encoding="utf-8" standalone="no"?>
<!DOCTYPE svg PUBLIC "-//W3C//DTD SVG 1.1//EN"
  "http://www.w3.org/Graphics/SVG/1.1/DTD/svg11.dtd">
<svg xmlns:xlink="http://www.w3.org/1999/xlink" width="331.2pt" height="439.2pt" viewBox="0 0 331.2 439.2" xmlns="http://www.w3.org/2000/svg" version="1.1">
 <metadata>
  <rdf:RDF xmlns:dc="http://purl.org/dc/elements/1.1/" xmlns:cc="http://creativecommons.org/ns#" xmlns:rdf="http://www.w3.org/1999/02/22-rdf-syntax-ns#">
   <cc:Work>
    <dc:type rdf:resource="http://purl.org/dc/dcmitype/StillImage"/>
    <dc:date>2022-09-22T16:14:10.670994</dc:date>
    <dc:format>image/svg+xml</dc:format>
    <dc:creator>
     <cc:Agent>
      <dc:title>Matplotlib v3.5.3, https://matplotlib.org/</dc:title>
     </cc:Agent>
    </dc:creator>
   </cc:Work>
  </rdf:RDF>
 </metadata>
 <defs>
  <style type="text/css">*{stroke-linejoin: round; stroke-linecap: butt}</style>
 </defs>
 <g id="figure_1">
  <g id="patch_1">
   <path d="M 0 439.2 
L 331.2 439.2 
L 331.2 0 
L 0 0 
z
" style="fill: #ffffff"/>
  </g>
  <g id="axes_1">
   <g id="patch_2">
    <path d="M 115.2 345.6 
L 316.8 345.6 
L 316.8 36 
L 115.2 36 
z
" style="fill: #ffffff"/>
   </g>
   <g id="matplotlib.axis_1">
    <g id="xtick_1">
     <g id="line2d_1">
      <defs>
       <path id="m254ec82113" d="M 0 0 
L 0 3.5 
" style="stroke: #000000; stroke-width: 0.8"/>
      </defs>
      <g>
       <use xlink:href="#m254ec82113" x="140.4" y="345.6" style="stroke: #000000; stroke-width: 0.8"/>
      </g>
     </g>
     <g id="text_1">
      <!-- Usefulness -->
      <g transform="translate(100.585469 396.316877)rotate(-45)scale(0.1 -0.1)">
       <defs>
        <path id="DejaVuSans-55" d="M 556 4666 
L 1191 4666 
L 1191 1831 
Q 1191 1081 1462 751 
Q 1734 422 2344 422 
Q 2950 422 3222 751 
Q 3494 1081 3494 1831 
L 3494 4666 
L 4128 4666 
L 4128 1753 
Q 4128 841 3676 375 
Q 3225 -91 2344 -91 
Q 1459 -91 1007 375 
Q 556 841 556 1753 
L 556 4666 
z
" transform="scale(0.015625)"/>
        <path id="DejaVuSans-73" d="M 2834 3397 
L 2834 2853 
Q 2591 2978 2328 3040 
Q 2066 3103 1784 3103 
Q 1356 3103 1142 2972 
Q 928 2841 928 2578 
Q 928 2378 1081 2264 
Q 1234 2150 1697 2047 
L 1894 2003 
Q 2506 1872 2764 1633 
Q 3022 1394 3022 966 
Q 3022 478 2636 193 
Q 2250 -91 1575 -91 
Q 1294 -91 989 -36 
Q 684 19 347 128 
L 347 722 
Q 666 556 975 473 
Q 1284 391 1588 391 
Q 1994 391 2212 530 
Q 2431 669 2431 922 
Q 2431 1156 2273 1281 
Q 2116 1406 1581 1522 
L 1381 1569 
Q 847 1681 609 1914 
Q 372 2147 372 2553 
Q 372 3047 722 3315 
Q 1072 3584 1716 3584 
Q 2034 3584 2315 3537 
Q 2597 3491 2834 3397 
z
" transform="scale(0.015625)"/>
        <path id="DejaVuSans-65" d="M 3597 1894 
L 3597 1613 
L 953 1613 
Q 991 1019 1311 708 
Q 1631 397 2203 397 
Q 2534 397 2845 478 
Q 3156 559 3463 722 
L 3463 178 
Q 3153 47 2828 -22 
Q 2503 -91 2169 -91 
Q 1331 -91 842 396 
Q 353 884 353 1716 
Q 353 2575 817 3079 
Q 1281 3584 2069 3584 
Q 2775 3584 3186 3129 
Q 3597 2675 3597 1894 
z
M 3022 2063 
Q 3016 2534 2758 2815 
Q 2500 3097 2075 3097 
Q 1594 3097 1305 2825 
Q 1016 2553 972 2059 
L 3022 2063 
z
" transform="scale(0.015625)"/>
        <path id="DejaVuSans-66" d="M 2375 4863 
L 2375 4384 
L 1825 4384 
Q 1516 4384 1395 4259 
Q 1275 4134 1275 3809 
L 1275 3500 
L 2222 3500 
L 2222 3053 
L 1275 3053 
L 1275 0 
L 697 0 
L 697 3053 
L 147 3053 
L 147 3500 
L 697 3500 
L 697 3744 
Q 697 4328 969 4595 
Q 1241 4863 1831 4863 
L 2375 4863 
z
" transform="scale(0.015625)"/>
        <path id="DejaVuSans-75" d="M 544 1381 
L 544 3500 
L 1119 3500 
L 1119 1403 
Q 1119 906 1312 657 
Q 1506 409 1894 409 
Q 2359 409 2629 706 
Q 2900 1003 2900 1516 
L 2900 3500 
L 3475 3500 
L 3475 0 
L 2900 0 
L 2900 538 
Q 2691 219 2414 64 
Q 2138 -91 1772 -91 
Q 1169 -91 856 284 
Q 544 659 544 1381 
z
M 1991 3584 
L 1991 3584 
z
" transform="scale(0.015625)"/>
        <path id="DejaVuSans-6c" d="M 603 4863 
L 1178 4863 
L 1178 0 
L 603 0 
L 603 4863 
z
" transform="scale(0.015625)"/>
        <path id="DejaVuSans-6e" d="M 3513 2113 
L 3513 0 
L 2938 0 
L 2938 2094 
Q 2938 2591 2744 2837 
Q 2550 3084 2163 3084 
Q 1697 3084 1428 2787 
Q 1159 2491 1159 1978 
L 1159 0 
L 581 0 
L 581 3500 
L 1159 3500 
L 1159 2956 
Q 1366 3272 1645 3428 
Q 1925 3584 2291 3584 
Q 2894 3584 3203 3211 
Q 3513 2838 3513 2113 
z
" transform="scale(0.015625)"/>
       </defs>
       <use xlink:href="#DejaVuSans-55"/>
       <use xlink:href="#DejaVuSans-73" x="73.193359"/>
       <use xlink:href="#DejaVuSans-65" x="125.292969"/>
       <use xlink:href="#DejaVuSans-66" x="186.816406"/>
       <use xlink:href="#DejaVuSans-75" x="222.021484"/>
       <use xlink:href="#DejaVuSans-6c" x="285.400391"/>
       <use xlink:href="#DejaVuSans-6e" x="313.183594"/>
       <use xlink:href="#DejaVuSans-65" x="376.5625"/>
       <use xlink:href="#DejaVuSans-73" x="438.085938"/>
       <use xlink:href="#DejaVuSans-73" x="490.185547"/>
      </g>
     </g>
    </g>
    <g id="xtick_2">
     <g id="line2d_2">
      <g>
       <use xlink:href="#m254ec82113" x="190.8" y="345.6" style="stroke: #000000; stroke-width: 0.8"/>
      </g>
     </g>
     <g id="text_2">
      <!-- Ease of Use -->
      <g transform="translate(147.973636 399.32871)rotate(-45)scale(0.1 -0.1)">
       <defs>
        <path id="DejaVuSans-45" d="M 628 4666 
L 3578 4666 
L 3578 4134 
L 1259 4134 
L 1259 2753 
L 3481 2753 
L 3481 2222 
L 1259 2222 
L 1259 531 
L 3634 531 
L 3634 0 
L 628 0 
L 628 4666 
z
" transform="scale(0.015625)"/>
        <path id="DejaVuSans-61" d="M 2194 1759 
Q 1497 1759 1228 1600 
Q 959 1441 959 1056 
Q 959 750 1161 570 
Q 1363 391 1709 391 
Q 2188 391 2477 730 
Q 2766 1069 2766 1631 
L 2766 1759 
L 2194 1759 
z
M 3341 1997 
L 3341 0 
L 2766 0 
L 2766 531 
Q 2569 213 2275 61 
Q 1981 -91 1556 -91 
Q 1019 -91 701 211 
Q 384 513 384 1019 
Q 384 1609 779 1909 
Q 1175 2209 1959 2209 
L 2766 2209 
L 2766 2266 
Q 2766 2663 2505 2880 
Q 2244 3097 1772 3097 
Q 1472 3097 1187 3025 
Q 903 2953 641 2809 
L 641 3341 
Q 956 3463 1253 3523 
Q 1550 3584 1831 3584 
Q 2591 3584 2966 3190 
Q 3341 2797 3341 1997 
z
" transform="scale(0.015625)"/>
        <path id="DejaVuSans-20" transform="scale(0.015625)"/>
        <path id="DejaVuSans-6f" d="M 1959 3097 
Q 1497 3097 1228 2736 
Q 959 2375 959 1747 
Q 959 1119 1226 758 
Q 1494 397 1959 397 
Q 2419 397 2687 759 
Q 2956 1122 2956 1747 
Q 2956 2369 2687 2733 
Q 2419 3097 1959 3097 
z
M 1959 3584 
Q 2709 3584 3137 3096 
Q 3566 2609 3566 1747 
Q 3566 888 3137 398 
Q 2709 -91 1959 -91 
Q 1206 -91 779 398 
Q 353 888 353 1747 
Q 353 2609 779 3096 
Q 1206 3584 1959 3584 
z
" transform="scale(0.015625)"/>
       </defs>
       <use xlink:href="#DejaVuSans-45"/>
       <use xlink:href="#DejaVuSans-61" x="63.183594"/>
       <use xlink:href="#DejaVuSans-73" x="124.462891"/>
       <use xlink:href="#DejaVuSans-65" x="176.5625"/>
       <use xlink:href="#DejaVuSans-20" x="238.085938"/>
       <use xlink:href="#DejaVuSans-6f" x="269.873047"/>
       <use xlink:href="#DejaVuSans-66" x="331.054688"/>
       <use xlink:href="#DejaVuSans-20" x="366.259766"/>
       <use xlink:href="#DejaVuSans-55" x="398.046875"/>
       <use xlink:href="#DejaVuSans-73" x="471.240234"/>
       <use xlink:href="#DejaVuSans-65" x="523.339844"/>
      </g>
     </g>
    </g>
    <g id="xtick_3">
     <g id="line2d_3">
      <g>
       <use xlink:href="#m254ec82113" x="241.2" y="345.6" style="stroke: #000000; stroke-width: 0.8"/>
      </g>
     </g>
     <g id="text_3">
      <!-- Ease of Learning -->
      <g transform="translate(180.883792 416.818554)rotate(-45)scale(0.1 -0.1)">
       <defs>
        <path id="DejaVuSans-4c" d="M 628 4666 
L 1259 4666 
L 1259 531 
L 3531 531 
L 3531 0 
L 628 0 
L 628 4666 
z
" transform="scale(0.015625)"/>
        <path id="DejaVuSans-72" d="M 2631 2963 
Q 2534 3019 2420 3045 
Q 2306 3072 2169 3072 
Q 1681 3072 1420 2755 
Q 1159 2438 1159 1844 
L 1159 0 
L 581 0 
L 581 3500 
L 1159 3500 
L 1159 2956 
Q 1341 3275 1631 3429 
Q 1922 3584 2338 3584 
Q 2397 3584 2469 3576 
Q 2541 3569 2628 3553 
L 2631 2963 
z
" transform="scale(0.015625)"/>
        <path id="DejaVuSans-69" d="M 603 3500 
L 1178 3500 
L 1178 0 
L 603 0 
L 603 3500 
z
M 603 4863 
L 1178 4863 
L 1178 4134 
L 603 4134 
L 603 4863 
z
" transform="scale(0.015625)"/>
        <path id="DejaVuSans-67" d="M 2906 1791 
Q 2906 2416 2648 2759 
Q 2391 3103 1925 3103 
Q 1463 3103 1205 2759 
Q 947 2416 947 1791 
Q 947 1169 1205 825 
Q 1463 481 1925 481 
Q 2391 481 2648 825 
Q 2906 1169 2906 1791 
z
M 3481 434 
Q 3481 -459 3084 -895 
Q 2688 -1331 1869 -1331 
Q 1566 -1331 1297 -1286 
Q 1028 -1241 775 -1147 
L 775 -588 
Q 1028 -725 1275 -790 
Q 1522 -856 1778 -856 
Q 2344 -856 2625 -561 
Q 2906 -266 2906 331 
L 2906 616 
Q 2728 306 2450 153 
Q 2172 0 1784 0 
Q 1141 0 747 490 
Q 353 981 353 1791 
Q 353 2603 747 3093 
Q 1141 3584 1784 3584 
Q 2172 3584 2450 3431 
Q 2728 3278 2906 2969 
L 2906 3500 
L 3481 3500 
L 3481 434 
z
" transform="scale(0.015625)"/>
       </defs>
       <use xlink:href="#DejaVuSans-45"/>
       <use xlink:href="#DejaVuSans-61" x="63.183594"/>
       <use xlink:href="#DejaVuSans-73" x="124.462891"/>
       <use xlink:href="#DejaVuSans-65" x="176.5625"/>
       <use xlink:href="#DejaVuSans-20" x="238.085938"/>
       <use xlink:href="#DejaVuSans-6f" x="269.873047"/>
       <use xlink:href="#DejaVuSans-66" x="331.054688"/>
       <use xlink:href="#DejaVuSans-20" x="366.259766"/>
       <use xlink:href="#DejaVuSans-4c" x="398.046875"/>
       <use xlink:href="#DejaVuSans-65" x="452.009766"/>
       <use xlink:href="#DejaVuSans-61" x="513.533203"/>
       <use xlink:href="#DejaVuSans-72" x="574.8125"/>
       <use xlink:href="#DejaVuSans-6e" x="614.175781"/>
       <use xlink:href="#DejaVuSans-69" x="677.554688"/>
       <use xlink:href="#DejaVuSans-6e" x="705.337891"/>
       <use xlink:href="#DejaVuSans-67" x="768.716797"/>
      </g>
     </g>
    </g>
    <g id="xtick_4">
     <g id="line2d_4">
      <g>
       <use xlink:href="#m254ec82113" x="291.6" y="345.6" style="stroke: #000000; stroke-width: 0.8"/>
      </g>
     </g>
     <g id="text_4">
      <!-- Satisfaction -->
      <g transform="translate(248.632214 399.470131)rotate(-45)scale(0.1 -0.1)">
       <defs>
        <path id="DejaVuSans-53" d="M 3425 4513 
L 3425 3897 
Q 3066 4069 2747 4153 
Q 2428 4238 2131 4238 
Q 1616 4238 1336 4038 
Q 1056 3838 1056 3469 
Q 1056 3159 1242 3001 
Q 1428 2844 1947 2747 
L 2328 2669 
Q 3034 2534 3370 2195 
Q 3706 1856 3706 1288 
Q 3706 609 3251 259 
Q 2797 -91 1919 -91 
Q 1588 -91 1214 -16 
Q 841 59 441 206 
L 441 856 
Q 825 641 1194 531 
Q 1563 422 1919 422 
Q 2459 422 2753 634 
Q 3047 847 3047 1241 
Q 3047 1584 2836 1778 
Q 2625 1972 2144 2069 
L 1759 2144 
Q 1053 2284 737 2584 
Q 422 2884 422 3419 
Q 422 4038 858 4394 
Q 1294 4750 2059 4750 
Q 2388 4750 2728 4690 
Q 3069 4631 3425 4513 
z
" transform="scale(0.015625)"/>
        <path id="DejaVuSans-74" d="M 1172 4494 
L 1172 3500 
L 2356 3500 
L 2356 3053 
L 1172 3053 
L 1172 1153 
Q 1172 725 1289 603 
Q 1406 481 1766 481 
L 2356 481 
L 2356 0 
L 1766 0 
Q 1100 0 847 248 
Q 594 497 594 1153 
L 594 3053 
L 172 3053 
L 172 3500 
L 594 3500 
L 594 4494 
L 1172 4494 
z
" transform="scale(0.015625)"/>
        <path id="DejaVuSans-63" d="M 3122 3366 
L 3122 2828 
Q 2878 2963 2633 3030 
Q 2388 3097 2138 3097 
Q 1578 3097 1268 2742 
Q 959 2388 959 1747 
Q 959 1106 1268 751 
Q 1578 397 2138 397 
Q 2388 397 2633 464 
Q 2878 531 3122 666 
L 3122 134 
Q 2881 22 2623 -34 
Q 2366 -91 2075 -91 
Q 1284 -91 818 406 
Q 353 903 353 1747 
Q 353 2603 823 3093 
Q 1294 3584 2113 3584 
Q 2378 3584 2631 3529 
Q 2884 3475 3122 3366 
z
" transform="scale(0.015625)"/>
       </defs>
       <use xlink:href="#DejaVuSans-53"/>
       <use xlink:href="#DejaVuSans-61" x="63.476562"/>
       <use xlink:href="#DejaVuSans-74" x="124.755859"/>
       <use xlink:href="#DejaVuSans-69" x="163.964844"/>
       <use xlink:href="#DejaVuSans-73" x="191.748047"/>
       <use xlink:href="#DejaVuSans-66" x="243.847656"/>
       <use xlink:href="#DejaVuSans-61" x="279.052734"/>
       <use xlink:href="#DejaVuSans-63" x="340.332031"/>
       <use xlink:href="#DejaVuSans-74" x="395.3125"/>
       <use xlink:href="#DejaVuSans-69" x="434.521484"/>
       <use xlink:href="#DejaVuSans-6f" x="462.304688"/>
       <use xlink:href="#DejaVuSans-6e" x="523.486328"/>
      </g>
     </g>
    </g>
    <g id="text_5">
     <!-- section -->
     <g transform="translate(197.992188 429.887553)scale(0.1 -0.1)">
      <use xlink:href="#DejaVuSans-73"/>
      <use xlink:href="#DejaVuSans-65" x="52.099609"/>
      <use xlink:href="#DejaVuSans-63" x="113.623047"/>
      <use xlink:href="#DejaVuSans-74" x="168.603516"/>
      <use xlink:href="#DejaVuSans-69" x="207.8125"/>
      <use xlink:href="#DejaVuSans-6f" x="235.595703"/>
      <use xlink:href="#DejaVuSans-6e" x="296.777344"/>
     </g>
    </g>
   </g>
   <g id="matplotlib.axis_2">
    <g id="ytick_1">
     <g id="line2d_5">
      <defs>
       <path id="mef52fc761f" d="M 0 0 
L -3.5 0 
" style="stroke: #000000; stroke-width: 0.8"/>
      </defs>
      <g>
       <use xlink:href="#mef52fc761f" x="115.2" y="331.527273" style="stroke: #000000; stroke-width: 0.8"/>
      </g>
     </g>
     <g id="text_6">
      <!-- strongly disagree -->
      <g transform="translate(21.5 335.326491)scale(0.1 -0.1)">
       <defs>
        <path id="DejaVuSans-79" d="M 2059 -325 
Q 1816 -950 1584 -1140 
Q 1353 -1331 966 -1331 
L 506 -1331 
L 506 -850 
L 844 -850 
Q 1081 -850 1212 -737 
Q 1344 -625 1503 -206 
L 1606 56 
L 191 3500 
L 800 3500 
L 1894 763 
L 2988 3500 
L 3597 3500 
L 2059 -325 
z
" transform="scale(0.015625)"/>
        <path id="DejaVuSans-64" d="M 2906 2969 
L 2906 4863 
L 3481 4863 
L 3481 0 
L 2906 0 
L 2906 525 
Q 2725 213 2448 61 
Q 2172 -91 1784 -91 
Q 1150 -91 751 415 
Q 353 922 353 1747 
Q 353 2572 751 3078 
Q 1150 3584 1784 3584 
Q 2172 3584 2448 3432 
Q 2725 3281 2906 2969 
z
M 947 1747 
Q 947 1113 1208 752 
Q 1469 391 1925 391 
Q 2381 391 2643 752 
Q 2906 1113 2906 1747 
Q 2906 2381 2643 2742 
Q 2381 3103 1925 3103 
Q 1469 3103 1208 2742 
Q 947 2381 947 1747 
z
" transform="scale(0.015625)"/>
       </defs>
       <use xlink:href="#DejaVuSans-73"/>
       <use xlink:href="#DejaVuSans-74" x="52.099609"/>
       <use xlink:href="#DejaVuSans-72" x="91.308594"/>
       <use xlink:href="#DejaVuSans-6f" x="130.171875"/>
       <use xlink:href="#DejaVuSans-6e" x="191.353516"/>
       <use xlink:href="#DejaVuSans-67" x="254.732422"/>
       <use xlink:href="#DejaVuSans-6c" x="318.208984"/>
       <use xlink:href="#DejaVuSans-79" x="345.992188"/>
       <use xlink:href="#DejaVuSans-20" x="405.171875"/>
       <use xlink:href="#DejaVuSans-64" x="436.958984"/>
       <use xlink:href="#DejaVuSans-69" x="500.435547"/>
       <use xlink:href="#DejaVuSans-73" x="528.21875"/>
       <use xlink:href="#DejaVuSans-61" x="580.318359"/>
       <use xlink:href="#DejaVuSans-67" x="641.597656"/>
       <use xlink:href="#DejaVuSans-72" x="705.074219"/>
       <use xlink:href="#DejaVuSans-65" x="743.9375"/>
       <use xlink:href="#DejaVuSans-65" x="805.460938"/>
      </g>
     </g>
    </g>
    <g id="ytick_2">
     <g id="line2d_6">
      <g>
       <use xlink:href="#mef52fc761f" x="115.2" y="283.620116" style="stroke: #000000; stroke-width: 0.8"/>
      </g>
     </g>
     <g id="text_7">
      <!-- - - -->
      <g transform="translate(100.984375 287.419335)scale(0.1 -0.1)">
       <defs>
        <path id="DejaVuSans-2d" d="M 313 2009 
L 1997 2009 
L 1997 1497 
L 313 1497 
L 313 2009 
z
" transform="scale(0.015625)"/>
       </defs>
       <use xlink:href="#DejaVuSans-2d"/>
       <use xlink:href="#DejaVuSans-2d" x="36.083984"/>
      </g>
     </g>
    </g>
    <g id="ytick_3">
     <g id="line2d_7">
      <g>
       <use xlink:href="#mef52fc761f" x="115.2" y="235.712959" style="stroke: #000000; stroke-width: 0.8"/>
      </g>
     </g>
     <g id="text_8">
      <!-- - -->
      <g transform="translate(104.592188 239.512178)scale(0.1 -0.1)">
       <use xlink:href="#DejaVuSans-2d"/>
      </g>
     </g>
    </g>
    <g id="ytick_4">
     <g id="line2d_8">
      <g>
       <use xlink:href="#mef52fc761f" x="115.2" y="187.805803" style="stroke: #000000; stroke-width: 0.8"/>
      </g>
     </g>
     <g id="text_9">
      <!-- 0 -->
      <g transform="translate(101.8375 191.605021)scale(0.1 -0.1)">
       <defs>
        <path id="DejaVuSans-30" d="M 2034 4250 
Q 1547 4250 1301 3770 
Q 1056 3291 1056 2328 
Q 1056 1369 1301 889 
Q 1547 409 2034 409 
Q 2525 409 2770 889 
Q 3016 1369 3016 2328 
Q 3016 3291 2770 3770 
Q 2525 4250 2034 4250 
z
M 2034 4750 
Q 2819 4750 3233 4129 
Q 3647 3509 3647 2328 
Q 3647 1150 3233 529 
Q 2819 -91 2034 -91 
Q 1250 -91 836 529 
Q 422 1150 422 2328 
Q 422 3509 836 4129 
Q 1250 4750 2034 4750 
z
" transform="scale(0.015625)"/>
       </defs>
       <use xlink:href="#DejaVuSans-30"/>
      </g>
     </g>
    </g>
    <g id="ytick_5">
     <g id="line2d_9">
      <g>
       <use xlink:href="#mef52fc761f" x="115.2" y="139.898646" style="stroke: #000000; stroke-width: 0.8"/>
      </g>
     </g>
     <g id="text_10">
      <!-- + -->
      <g transform="translate(99.820313 143.697865)scale(0.1 -0.1)">
       <defs>
        <path id="DejaVuSans-2b" d="M 2944 4013 
L 2944 2272 
L 4684 2272 
L 4684 1741 
L 2944 1741 
L 2944 0 
L 2419 0 
L 2419 1741 
L 678 1741 
L 678 2272 
L 2419 2272 
L 2419 4013 
L 2944 4013 
z
" transform="scale(0.015625)"/>
       </defs>
       <use xlink:href="#DejaVuSans-2b"/>
      </g>
     </g>
    </g>
    <g id="ytick_6">
     <g id="line2d_10">
      <g>
       <use xlink:href="#mef52fc761f" x="115.2" y="91.991489" style="stroke: #000000; stroke-width: 0.8"/>
      </g>
     </g>
     <g id="text_11">
      <!-- ++ -->
      <g transform="translate(91.440625 95.790708)scale(0.1 -0.1)">
       <use xlink:href="#DejaVuSans-2b"/>
       <use xlink:href="#DejaVuSans-2b" x="83.789062"/>
      </g>
     </g>
    </g>
    <g id="ytick_7">
     <g id="line2d_11">
      <g>
       <use xlink:href="#mef52fc761f" x="115.2" y="44.084333" style="stroke: #000000; stroke-width: 0.8"/>
      </g>
     </g>
     <g id="text_12">
      <!-- strongly agree -->
      <g transform="translate(35.835938 47.883551)scale(0.1 -0.1)">
       <use xlink:href="#DejaVuSans-73"/>
       <use xlink:href="#DejaVuSans-74" x="52.099609"/>
       <use xlink:href="#DejaVuSans-72" x="91.308594"/>
       <use xlink:href="#DejaVuSans-6f" x="130.171875"/>
       <use xlink:href="#DejaVuSans-6e" x="191.353516"/>
       <use xlink:href="#DejaVuSans-67" x="254.732422"/>
       <use xlink:href="#DejaVuSans-6c" x="318.208984"/>
       <use xlink:href="#DejaVuSans-79" x="345.992188"/>
       <use xlink:href="#DejaVuSans-20" x="405.171875"/>
       <use xlink:href="#DejaVuSans-61" x="436.958984"/>
       <use xlink:href="#DejaVuSans-67" x="498.238281"/>
       <use xlink:href="#DejaVuSans-72" x="561.714844"/>
       <use xlink:href="#DejaVuSans-65" x="600.578125"/>
       <use xlink:href="#DejaVuSans-65" x="662.101562"/>
      </g>
     </g>
    </g>
    <g id="text_13">
     <!-- rating -->
     <g transform="translate(15.420313 205.611719)rotate(-90)scale(0.1 -0.1)">
      <use xlink:href="#DejaVuSans-72"/>
      <use xlink:href="#DejaVuSans-61" x="41.113281"/>
      <use xlink:href="#DejaVuSans-74" x="102.392578"/>
      <use xlink:href="#DejaVuSans-69" x="141.601562"/>
      <use xlink:href="#DejaVuSans-6e" x="169.384766"/>
      <use xlink:href="#DejaVuSans-67" x="232.763672"/>
     </g>
    </g>
   </g>
   <g id="patch_3">
    <path d="M 118.35 243.198453 
L 133.05 243.198453 
L 133.05 121.933462 
L 118.35 121.933462 
L 118.35 243.198453 
z
" clip-path="url(#p3c5b9e1c34)" style="fill: #1f77b4; stroke: #000000; stroke-linejoin: miter"/>
   </g>
   <g id="line2d_12">
    <path d="M 125.7 243.198453 
L 125.7 325.538878 
" clip-path="url(#p3c5b9e1c34)" style="fill: none; stroke: #000000; stroke-linecap: square"/>
   </g>
   <g id="line2d_13">
    <path d="M 125.7 121.933462 
L 125.7 50.072727 
" clip-path="url(#p3c5b9e1c34)" style="fill: none; stroke: #000000; stroke-linecap: square"/>
   </g>
   <g id="line2d_14">
    <path d="M 122.025 325.538878 
L 129.375 325.538878 
" clip-path="url(#p3c5b9e1c34)" style="fill: none; stroke: #000000; stroke-linecap: square"/>
   </g>
   <g id="line2d_15">
    <path d="M 122.025 50.072727 
L 129.375 50.072727 
" clip-path="url(#p3c5b9e1c34)" style="fill: none; stroke: #000000; stroke-linecap: square"/>
   </g>
   <g id="line2d_16"/>
   <g id="patch_4">
    <path d="M 168.75 292.174965 
L 183.45 292.174965 
L 183.45 119.367007 
L 168.75 119.367007 
L 168.75 292.174965 
z
" clip-path="url(#p3c5b9e1c34)" style="fill: #1f77b4; stroke: #000000; stroke-linejoin: miter"/>
   </g>
   <g id="line2d_17">
    <path d="M 176.1 292.174965 
L 176.1 331.527273 
" clip-path="url(#p3c5b9e1c34)" style="fill: none; stroke: #000000; stroke-linecap: square"/>
   </g>
   <g id="line2d_18">
    <path d="M 176.1 119.367007 
L 176.1 71.459851 
" clip-path="url(#p3c5b9e1c34)" style="fill: none; stroke: #000000; stroke-linecap: square"/>
   </g>
   <g id="line2d_19">
    <path d="M 172.425 331.527273 
L 179.775 331.527273 
" clip-path="url(#p3c5b9e1c34)" style="fill: none; stroke: #000000; stroke-linecap: square"/>
   </g>
   <g id="line2d_20">
    <path d="M 172.425 71.459851 
L 179.775 71.459851 
" clip-path="url(#p3c5b9e1c34)" style="fill: none; stroke: #000000; stroke-linecap: square"/>
   </g>
   <g id="line2d_21"/>
   <g id="patch_5">
    <path d="M 219.15 298.591103 
L 233.85 298.591103 
L 233.85 133.910251 
L 219.15 133.910251 
L 219.15 298.591103 
z
" clip-path="url(#p3c5b9e1c34)" style="fill: #1f77b4; stroke: #000000; stroke-linejoin: miter"/>
   </g>
   <g id="line2d_22">
    <path d="M 226.5 298.591103 
L 226.5 331.527273 
" clip-path="url(#p3c5b9e1c34)" style="fill: none; stroke: #000000; stroke-linecap: square"/>
   </g>
   <g id="line2d_23">
    <path d="M 226.5 133.910251 
L 226.5 80.0147 
" clip-path="url(#p3c5b9e1c34)" style="fill: none; stroke: #000000; stroke-linecap: square"/>
   </g>
   <g id="line2d_24">
    <path d="M 222.825 331.527273 
L 230.175 331.527273 
" clip-path="url(#p3c5b9e1c34)" style="fill: none; stroke: #000000; stroke-linecap: square"/>
   </g>
   <g id="line2d_25">
    <path d="M 222.825 80.0147 
L 230.175 80.0147 
" clip-path="url(#p3c5b9e1c34)" style="fill: none; stroke: #000000; stroke-linecap: square"/>
   </g>
   <g id="line2d_26"/>
   <g id="patch_6">
    <path d="M 269.55 280.198176 
L 284.25 280.198176 
L 284.25 131.343797 
L 269.55 131.343797 
L 269.55 280.198176 
z
" clip-path="url(#p3c5b9e1c34)" style="fill: #1f77b4; stroke: #000000; stroke-linejoin: miter"/>
   </g>
   <g id="line2d_27">
    <path d="M 276.9 280.198176 
L 276.9 310.995634 
" clip-path="url(#p3c5b9e1c34)" style="fill: none; stroke: #000000; stroke-linecap: square"/>
   </g>
   <g id="line2d_28">
    <path d="M 276.9 131.343797 
L 276.9 57.772092 
" clip-path="url(#p3c5b9e1c34)" style="fill: none; stroke: #000000; stroke-linecap: square"/>
   </g>
   <g id="line2d_29">
    <path d="M 273.225 310.995634 
L 280.575 310.995634 
" clip-path="url(#p3c5b9e1c34)" style="fill: none; stroke: #000000; stroke-linecap: square"/>
   </g>
   <g id="line2d_30">
    <path d="M 273.225 57.772092 
L 280.575 57.772092 
" clip-path="url(#p3c5b9e1c34)" style="fill: none; stroke: #000000; stroke-linecap: square"/>
   </g>
   <g id="line2d_31"/>
   <g id="patch_7">
    <path d="M 133.05 193.794197 
L 147.75 193.794197 
L 147.75 151.875435 
L 133.05 151.875435 
L 133.05 193.794197 
z
" clip-path="url(#p3c5b9e1c34)" style="fill: #ff7f0e; stroke: #000000; stroke-linejoin: miter"/>
   </g>
   <g id="line2d_32">
    <path d="M 140.4 193.794197 
L 140.4 199.782592 
" clip-path="url(#p3c5b9e1c34)" style="fill: none; stroke: #000000; stroke-linecap: square"/>
   </g>
   <g id="line2d_33">
    <path d="M 140.4 151.875435 
L 140.4 115.945068 
" clip-path="url(#p3c5b9e1c34)" style="fill: none; stroke: #000000; stroke-linecap: square"/>
   </g>
   <g id="line2d_34">
    <path d="M 136.725 199.782592 
L 144.075 199.782592 
" clip-path="url(#p3c5b9e1c34)" style="fill: none; stroke: #000000; stroke-linecap: square"/>
   </g>
   <g id="line2d_35">
    <path d="M 136.725 115.945068 
L 144.075 115.945068 
" clip-path="url(#p3c5b9e1c34)" style="fill: none; stroke: #000000; stroke-linecap: square"/>
   </g>
   <g id="line2d_36"/>
   <g id="patch_8">
    <path d="M 183.45 228.86908 
L 198.15 228.86908 
L 198.15 180.961923 
L 183.45 180.961923 
L 183.45 228.86908 
z
" clip-path="url(#p3c5b9e1c34)" style="fill: #ff7f0e; stroke: #000000; stroke-linejoin: miter"/>
   </g>
   <g id="line2d_37">
    <path d="M 190.8 228.86908 
L 190.8 242.556839 
" clip-path="url(#p3c5b9e1c34)" style="fill: none; stroke: #000000; stroke-linecap: square"/>
   </g>
   <g id="line2d_38">
    <path d="M 190.8 180.961923 
L 190.8 146.742526 
" clip-path="url(#p3c5b9e1c34)" style="fill: none; stroke: #000000; stroke-linecap: square"/>
   </g>
   <g id="line2d_39">
    <path d="M 187.125 242.556839 
L 194.475 242.556839 
" clip-path="url(#p3c5b9e1c34)" style="fill: none; stroke: #000000; stroke-linecap: square"/>
   </g>
   <g id="line2d_40">
    <path d="M 187.125 146.742526 
L 194.475 146.742526 
" clip-path="url(#p3c5b9e1c34)" style="fill: none; stroke: #000000; stroke-linecap: square"/>
   </g>
   <g id="line2d_41"/>
   <g id="patch_9">
    <path d="M 233.85 247.689749 
L 248.55 247.689749 
L 248.55 190.8 
L 233.85 190.8 
L 233.85 247.689749 
z
" clip-path="url(#p3c5b9e1c34)" style="fill: #ff7f0e; stroke: #000000; stroke-linejoin: miter"/>
   </g>
   <g id="line2d_42">
    <path d="M 241.2 247.689749 
L 241.2 259.666538 
" clip-path="url(#p3c5b9e1c34)" style="fill: none; stroke: #000000; stroke-linecap: square"/>
   </g>
   <g id="line2d_43">
    <path d="M 241.2 190.8 
L 241.2 163.852224 
" clip-path="url(#p3c5b9e1c34)" style="fill: none; stroke: #000000; stroke-linecap: square"/>
   </g>
   <g id="line2d_44">
    <path d="M 237.525 259.666538 
L 244.875 259.666538 
" clip-path="url(#p3c5b9e1c34)" style="fill: none; stroke: #000000; stroke-linecap: square"/>
   </g>
   <g id="line2d_45">
    <path d="M 237.525 163.852224 
L 244.875 163.852224 
" clip-path="url(#p3c5b9e1c34)" style="fill: none; stroke: #000000; stroke-linecap: square"/>
   </g>
   <g id="line2d_46">
    <defs>
     <path id="me85bf7e715" d="M 0 3 
C 0.795609 3 1.55874 2.683901 2.12132 2.12132 
C 2.683901 1.55874 3 0.795609 3 0 
C 3 -0.795609 2.683901 -1.55874 2.12132 -2.12132 
C 1.55874 -2.683901 0.795609 -3 0 -3 
C -0.795609 -3 -1.55874 -2.683901 -2.12132 -2.12132 
C -2.683901 -1.55874 -3 -0.795609 -3 0 
C -3 0.795609 -2.683901 1.55874 -2.12132 2.12132 
C -1.55874 2.683901 -0.795609 3 0 3 
z
" style="stroke: #000000"/>
    </defs>
    <g clip-path="url(#p3c5b9e1c34)">
     <use xlink:href="#me85bf7e715" x="241.2" y="103.968279" style="fill: #ff7f0e; stroke: #000000"/>
    </g>
   </g>
   <g id="patch_10">
    <path d="M 284.25 206.626471 
L 298.95 206.626471 
L 298.95 177.539983 
L 284.25 177.539983 
L 284.25 206.626471 
z
" clip-path="url(#p3c5b9e1c34)" style="fill: #ff7f0e; stroke: #000000; stroke-linejoin: miter"/>
   </g>
   <g id="line2d_47">
    <path d="M 291.6 206.626471 
L 291.6 222.0252 
" clip-path="url(#p3c5b9e1c34)" style="fill: none; stroke: #000000; stroke-linecap: square"/>
   </g>
   <g id="line2d_48">
    <path d="M 291.6 177.539983 
L 291.6 167.274164 
" clip-path="url(#p3c5b9e1c34)" style="fill: none; stroke: #000000; stroke-linecap: square"/>
   </g>
   <g id="line2d_49">
    <path d="M 287.925 222.0252 
L 295.275 222.0252 
" clip-path="url(#p3c5b9e1c34)" style="fill: none; stroke: #000000; stroke-linecap: square"/>
   </g>
   <g id="line2d_50">
    <path d="M 287.925 167.274164 
L 295.275 167.274164 
" clip-path="url(#p3c5b9e1c34)" style="fill: none; stroke: #000000; stroke-linecap: square"/>
   </g>
   <g id="line2d_51">
    <g clip-path="url(#p3c5b9e1c34)">
     <use xlink:href="#me85bf7e715" x="291.6" y="105.679248" style="fill: #ff7f0e; stroke: #000000"/>
    </g>
   </g>
   <g id="patch_11">
    <path d="M 147.75 163.852224 
L 162.45 163.852224 
L 162.45 100.974081 
L 147.75 100.974081 
L 147.75 163.852224 
z
" clip-path="url(#p3c5b9e1c34)" style="fill: #2ca02c; stroke: #000000; stroke-linejoin: miter"/>
   </g>
   <g id="line2d_52">
    <path d="M 155.1 163.852224 
L 155.1 199.782592 
" clip-path="url(#p3c5b9e1c34)" style="fill: none; stroke: #000000; stroke-linecap: square"/>
   </g>
   <g id="line2d_53">
    <path d="M 155.1 100.974081 
L 155.1 68.037911 
" clip-path="url(#p3c5b9e1c34)" style="fill: none; stroke: #000000; stroke-linecap: square"/>
   </g>
   <g id="line2d_54">
    <path d="M 151.425 199.782592 
L 158.775 199.782592 
" clip-path="url(#p3c5b9e1c34)" style="fill: none; stroke: #000000; stroke-linecap: square"/>
   </g>
   <g id="line2d_55">
    <path d="M 151.425 68.037911 
L 158.775 68.037911 
" clip-path="url(#p3c5b9e1c34)" style="fill: none; stroke: #000000; stroke-linecap: square"/>
   </g>
   <g id="line2d_56"/>
   <g id="patch_12">
    <path d="M 198.15 218.603261 
L 212.85 218.603261 
L 212.85 119.367007 
L 198.15 119.367007 
L 198.15 218.603261 
z
" clip-path="url(#p3c5b9e1c34)" style="fill: #2ca02c; stroke: #000000; stroke-linejoin: miter"/>
   </g>
   <g id="line2d_57">
    <path d="M 205.5 218.603261 
L 205.5 242.556839 
" clip-path="url(#p3c5b9e1c34)" style="fill: none; stroke: #000000; stroke-linecap: square"/>
   </g>
   <g id="line2d_58">
    <path d="M 205.5 119.367007 
L 205.5 91.991489 
" clip-path="url(#p3c5b9e1c34)" style="fill: none; stroke: #000000; stroke-linecap: square"/>
   </g>
   <g id="line2d_59">
    <path d="M 201.825 242.556839 
L 209.175 242.556839 
" clip-path="url(#p3c5b9e1c34)" style="fill: none; stroke: #000000; stroke-linecap: square"/>
   </g>
   <g id="line2d_60">
    <path d="M 201.825 91.991489 
L 209.175 91.991489 
" clip-path="url(#p3c5b9e1c34)" style="fill: none; stroke: #000000; stroke-linecap: square"/>
   </g>
   <g id="line2d_61"/>
   <g id="patch_13">
    <path d="M 248.55 199.782592 
L 263.25 199.782592 
L 263.25 142.892843 
L 248.55 142.892843 
L 248.55 199.782592 
z
" clip-path="url(#p3c5b9e1c34)" style="fill: #2ca02c; stroke: #000000; stroke-linejoin: miter"/>
   </g>
   <g id="line2d_62">
    <path d="M 255.9 199.782592 
L 255.9 235.712959 
" clip-path="url(#p3c5b9e1c34)" style="fill: none; stroke: #000000; stroke-linecap: square"/>
   </g>
   <g id="line2d_63">
    <path d="M 255.9 142.892843 
L 255.9 68.037911 
" clip-path="url(#p3c5b9e1c34)" style="fill: none; stroke: #000000; stroke-linecap: square"/>
   </g>
   <g id="line2d_64">
    <path d="M 252.225 235.712959 
L 259.575 235.712959 
" clip-path="url(#p3c5b9e1c34)" style="fill: none; stroke: #000000; stroke-linecap: square"/>
   </g>
   <g id="line2d_65">
    <path d="M 252.225 68.037911 
L 259.575 68.037911 
" clip-path="url(#p3c5b9e1c34)" style="fill: none; stroke: #000000; stroke-linecap: square"/>
   </g>
   <g id="line2d_66"/>
   <g id="patch_14">
    <path d="M 298.95 191.227742 
L 313.65 191.227742 
L 313.65 141.609616 
L 298.95 141.609616 
L 298.95 191.227742 
z
" clip-path="url(#p3c5b9e1c34)" style="fill: #2ca02c; stroke: #000000; stroke-linejoin: miter"/>
   </g>
   <g id="line2d_67">
    <path d="M 306.3 191.227742 
L 306.3 222.0252 
" clip-path="url(#p3c5b9e1c34)" style="fill: none; stroke: #000000; stroke-linecap: square"/>
   </g>
   <g id="line2d_68">
    <path d="M 306.3 141.609616 
L 306.3 139.898646 
" clip-path="url(#p3c5b9e1c34)" style="fill: none; stroke: #000000; stroke-linecap: square"/>
   </g>
   <g id="line2d_69">
    <path d="M 302.625 222.0252 
L 309.975 222.0252 
" clip-path="url(#p3c5b9e1c34)" style="fill: none; stroke: #000000; stroke-linecap: square"/>
   </g>
   <g id="line2d_70">
    <path d="M 302.625 139.898646 
L 309.975 139.898646 
" clip-path="url(#p3c5b9e1c34)" style="fill: none; stroke: #000000; stroke-linecap: square"/>
   </g>
   <g id="line2d_71">
    <defs>
     <path id="m6d3d4d55b5" d="M 0 3 
C 0.795609 3 1.55874 2.683901 2.12132 2.12132 
C 2.683901 1.55874 3 0.795609 3 0 
C 3 -0.795609 2.683901 -1.55874 2.12132 -2.12132 
C 1.55874 -2.683901 0.795609 -3 0 -3 
C -0.795609 -3 -1.55874 -2.683901 -2.12132 -2.12132 
C -2.683901 -1.55874 -3 -0.795609 -3 0 
C -3 0.795609 -2.683901 1.55874 -2.12132 2.12132 
C -1.55874 2.683901 -0.795609 3 0 3 
z
" style="stroke: #000000"/>
    </defs>
    <g clip-path="url(#p3c5b9e1c34)">
     <use xlink:href="#m6d3d4d55b5" x="306.3" y="50.928212" style="fill: #2ca02c; stroke: #000000"/>
    </g>
   </g>
   <g id="line2d_72">
    <path d="M 118.35 190.8 
L 133.05 190.8 
" clip-path="url(#p3c5b9e1c34)" style="fill: none; stroke: #000000; stroke-width: 2; stroke-linecap: square"/>
   </g>
   <g id="line2d_73">
    <defs>
     <path id="mfa28b541c2" d="M -0 4.242641 
L 4.242641 0 
L 0 -4.242641 
L -4.242641 -0 
z
" style="stroke: #000000; stroke-linejoin: miter"/>
    </defs>
    <g clip-path="url(#p3c5b9e1c34)">
     <use xlink:href="#mfa28b541c2" x="125.7" y="187.805803" style="stroke: #000000; stroke-linejoin: miter"/>
    </g>
   </g>
   <g id="line2d_74">
    <path d="M 168.75 170.696104 
L 183.45 170.696104 
" clip-path="url(#p3c5b9e1c34)" style="fill: none; stroke: #000000; stroke-width: 2; stroke-linecap: square"/>
   </g>
   <g id="line2d_75">
    <g clip-path="url(#p3c5b9e1c34)">
     <use xlink:href="#mfa28b541c2" x="176.1" y="199.212269" style="stroke: #000000; stroke-linejoin: miter"/>
    </g>
   </g>
   <g id="line2d_76">
    <path d="M 219.15 211.759381 
L 233.85 211.759381 
" clip-path="url(#p3c5b9e1c34)" style="fill: none; stroke: #000000; stroke-width: 2; stroke-linecap: square"/>
   </g>
   <g id="line2d_77">
    <g clip-path="url(#p3c5b9e1c34)">
     <use xlink:href="#mfa28b541c2" x="226.5" y="211.759381" style="stroke: #000000; stroke-linejoin: miter"/>
    </g>
   </g>
   <g id="line2d_78">
    <path d="M 269.55 187.805803 
L 284.25 187.805803 
" clip-path="url(#p3c5b9e1c34)" style="fill: none; stroke: #000000; stroke-width: 2; stroke-linecap: square"/>
   </g>
   <g id="line2d_79">
    <g clip-path="url(#p3c5b9e1c34)">
     <use xlink:href="#mfa28b541c2" x="276.9" y="192.938712" style="stroke: #000000; stroke-linejoin: miter"/>
    </g>
   </g>
   <g id="line2d_80">
    <path d="M 133.05 190.8 
L 147.75 190.8 
" clip-path="url(#p3c5b9e1c34)" style="fill: none; stroke: #000000; stroke-width: 2; stroke-linecap: square"/>
   </g>
   <g id="line2d_81">
    <g clip-path="url(#p3c5b9e1c34)">
     <use xlink:href="#mfa28b541c2" x="140.4" y="174.032495" style="stroke: #000000; stroke-linejoin: miter"/>
    </g>
   </g>
   <g id="line2d_82">
    <path d="M 183.45 187.805803 
L 198.15 187.805803 
" clip-path="url(#p3c5b9e1c34)" style="fill: none; stroke: #000000; stroke-width: 2; stroke-linecap: square"/>
   </g>
   <g id="line2d_83">
    <g clip-path="url(#p3c5b9e1c34)">
     <use xlink:href="#mfa28b541c2" x="190.8" y="198.75601" style="stroke: #000000; stroke-linejoin: miter"/>
    </g>
   </g>
   <g id="line2d_84">
    <path d="M 233.85 199.782592 
L 248.55 199.782592 
" clip-path="url(#p3c5b9e1c34)" style="fill: none; stroke: #000000; stroke-width: 2; stroke-linecap: square"/>
   </g>
   <g id="line2d_85">
    <g clip-path="url(#p3c5b9e1c34)">
     <use xlink:href="#mfa28b541c2" x="241.2" y="206.968665" style="stroke: #000000; stroke-linejoin: miter"/>
    </g>
   </g>
   <g id="line2d_86">
    <path d="M 284.25 198.071622 
L 298.95 198.071622 
" clip-path="url(#p3c5b9e1c34)" style="fill: none; stroke: #000000; stroke-width: 2; stroke-linecap: square"/>
   </g>
   <g id="line2d_87">
    <g clip-path="url(#p3c5b9e1c34)">
     <use xlink:href="#mfa28b541c2" x="291.6" y="187.121415" style="stroke: #000000; stroke-linejoin: miter"/>
    </g>
   </g>
   <g id="line2d_88">
    <path d="M 147.75 127.921857 
L 162.45 127.921857 
" clip-path="url(#p3c5b9e1c34)" style="fill: none; stroke: #000000; stroke-width: 2; stroke-linecap: square"/>
   </g>
   <g id="line2d_89">
    <g clip-path="url(#p3c5b9e1c34)">
     <use xlink:href="#mfa28b541c2" x="155.1" y="131.91412" style="stroke: #000000; stroke-linejoin: miter"/>
    </g>
   </g>
   <g id="line2d_90">
    <path d="M 198.15 174.118044 
L 212.85 174.118044 
" clip-path="url(#p3c5b9e1c34)" style="fill: none; stroke: #000000; stroke-width: 2; stroke-linecap: square"/>
   </g>
   <g id="line2d_91">
    <g clip-path="url(#p3c5b9e1c34)">
     <use xlink:href="#mfa28b541c2" x="205.5" y="169.555457" style="stroke: #000000; stroke-linejoin: miter"/>
    </g>
   </g>
   <g id="line2d_92">
    <path d="M 248.55 157.86383 
L 263.25 157.86383 
" clip-path="url(#p3c5b9e1c34)" style="fill: none; stroke: #000000; stroke-width: 2; stroke-linecap: square"/>
   </g>
   <g id="line2d_93">
    <g clip-path="url(#p3c5b9e1c34)">
     <use xlink:href="#mfa28b541c2" x="255.9" y="161.856093" style="stroke: #000000; stroke-linejoin: miter"/>
    </g>
   </g>
   <g id="line2d_94">
    <path d="M 298.95 163.852224 
L 313.65 163.852224 
" clip-path="url(#p3c5b9e1c34)" style="fill: none; stroke: #000000; stroke-width: 2; stroke-linecap: square"/>
   </g>
   <g id="line2d_95">
    <g clip-path="url(#p3c5b9e1c34)">
     <use xlink:href="#mfa28b541c2" x="306.3" y="155.867698" style="stroke: #000000; stroke-linejoin: miter"/>
    </g>
   </g>
   <g id="patch_15">
    <path d="M 115.2 345.6 
L 115.2 36 
" style="fill: none; stroke: #000000; stroke-width: 0.8; stroke-linejoin: miter; stroke-linecap: square"/>
   </g>
   <g id="patch_16">
    <path d="M 316.8 345.6 
L 316.8 36 
" style="fill: none; stroke: #000000; stroke-width: 0.8; stroke-linejoin: miter; stroke-linecap: square"/>
   </g>
   <g id="patch_17">
    <path d="M 115.2 345.6 
L 316.8 345.6 
" style="fill: none; stroke: #000000; stroke-width: 0.8; stroke-linejoin: miter; stroke-linecap: square"/>
   </g>
   <g id="patch_18">
    <path d="M 115.2 36 
L 316.8 36 
" style="fill: none; stroke: #000000; stroke-width: 0.8; stroke-linejoin: miter; stroke-linecap: square"/>
   </g>
  </g>
  <g id="text_14">
   <!-- USE Questionnaires - Sections (using means) -->
   <g transform="translate(30.33 17.902125)scale(0.12 -0.12)">
    <defs>
     <path id="DejaVuSans-51" d="M 2522 4238 
Q 1834 4238 1429 3725 
Q 1025 3213 1025 2328 
Q 1025 1447 1429 934 
Q 1834 422 2522 422 
Q 3209 422 3611 934 
Q 4013 1447 4013 2328 
Q 4013 3213 3611 3725 
Q 3209 4238 2522 4238 
z
M 3406 84 
L 4238 -825 
L 3475 -825 
L 2784 -78 
Q 2681 -84 2626 -87 
Q 2572 -91 2522 -91 
Q 1538 -91 948 567 
Q 359 1225 359 2328 
Q 359 3434 948 4092 
Q 1538 4750 2522 4750 
Q 3503 4750 4090 4092 
Q 4678 3434 4678 2328 
Q 4678 1516 4351 937 
Q 4025 359 3406 84 
z
" transform="scale(0.015625)"/>
     <path id="DejaVuSans-28" d="M 1984 4856 
Q 1566 4138 1362 3434 
Q 1159 2731 1159 2009 
Q 1159 1288 1364 580 
Q 1569 -128 1984 -844 
L 1484 -844 
Q 1016 -109 783 600 
Q 550 1309 550 2009 
Q 550 2706 781 3412 
Q 1013 4119 1484 4856 
L 1984 4856 
z
" transform="scale(0.015625)"/>
     <path id="DejaVuSans-6d" d="M 3328 2828 
Q 3544 3216 3844 3400 
Q 4144 3584 4550 3584 
Q 5097 3584 5394 3201 
Q 5691 2819 5691 2113 
L 5691 0 
L 5113 0 
L 5113 2094 
Q 5113 2597 4934 2840 
Q 4756 3084 4391 3084 
Q 3944 3084 3684 2787 
Q 3425 2491 3425 1978 
L 3425 0 
L 2847 0 
L 2847 2094 
Q 2847 2600 2669 2842 
Q 2491 3084 2119 3084 
Q 1678 3084 1418 2786 
Q 1159 2488 1159 1978 
L 1159 0 
L 581 0 
L 581 3500 
L 1159 3500 
L 1159 2956 
Q 1356 3278 1631 3431 
Q 1906 3584 2284 3584 
Q 2666 3584 2933 3390 
Q 3200 3197 3328 2828 
z
" transform="scale(0.015625)"/>
     <path id="DejaVuSans-29" d="M 513 4856 
L 1013 4856 
Q 1481 4119 1714 3412 
Q 1947 2706 1947 2009 
Q 1947 1309 1714 600 
Q 1481 -109 1013 -844 
L 513 -844 
Q 928 -128 1133 580 
Q 1338 1288 1338 2009 
Q 1338 2731 1133 3434 
Q 928 4138 513 4856 
z
" transform="scale(0.015625)"/>
    </defs>
    <use xlink:href="#DejaVuSans-55"/>
    <use xlink:href="#DejaVuSans-53" x="73.193359"/>
    <use xlink:href="#DejaVuSans-45" x="136.669922"/>
    <use xlink:href="#DejaVuSans-20" x="199.853516"/>
    <use xlink:href="#DejaVuSans-51" x="231.640625"/>
    <use xlink:href="#DejaVuSans-75" x="310.351562"/>
    <use xlink:href="#DejaVuSans-65" x="373.730469"/>
    <use xlink:href="#DejaVuSans-73" x="435.253906"/>
    <use xlink:href="#DejaVuSans-74" x="487.353516"/>
    <use xlink:href="#DejaVuSans-69" x="526.5625"/>
    <use xlink:href="#DejaVuSans-6f" x="554.345703"/>
    <use xlink:href="#DejaVuSans-6e" x="615.527344"/>
    <use xlink:href="#DejaVuSans-6e" x="678.90625"/>
    <use xlink:href="#DejaVuSans-61" x="742.285156"/>
    <use xlink:href="#DejaVuSans-69" x="803.564453"/>
    <use xlink:href="#DejaVuSans-72" x="831.347656"/>
    <use xlink:href="#DejaVuSans-65" x="870.210938"/>
    <use xlink:href="#DejaVuSans-73" x="931.734375"/>
    <use xlink:href="#DejaVuSans-20" x="983.833984"/>
    <use xlink:href="#DejaVuSans-2d" x="1015.621094"/>
    <use xlink:href="#DejaVuSans-20" x="1051.705078"/>
    <use xlink:href="#DejaVuSans-53" x="1083.492188"/>
    <use xlink:href="#DejaVuSans-65" x="1146.96875"/>
    <use xlink:href="#DejaVuSans-63" x="1208.492188"/>
    <use xlink:href="#DejaVuSans-74" x="1263.472656"/>
    <use xlink:href="#DejaVuSans-69" x="1302.681641"/>
    <use xlink:href="#DejaVuSans-6f" x="1330.464844"/>
    <use xlink:href="#DejaVuSans-6e" x="1391.646484"/>
    <use xlink:href="#DejaVuSans-73" x="1455.025391"/>
    <use xlink:href="#DejaVuSans-20" x="1507.125"/>
    <use xlink:href="#DejaVuSans-28" x="1538.912109"/>
    <use xlink:href="#DejaVuSans-75" x="1577.925781"/>
    <use xlink:href="#DejaVuSans-73" x="1641.304688"/>
    <use xlink:href="#DejaVuSans-69" x="1693.404297"/>
    <use xlink:href="#DejaVuSans-6e" x="1721.1875"/>
    <use xlink:href="#DejaVuSans-67" x="1784.566406"/>
    <use xlink:href="#DejaVuSans-20" x="1848.042969"/>
    <use xlink:href="#DejaVuSans-6d" x="1879.830078"/>
    <use xlink:href="#DejaVuSans-65" x="1977.242188"/>
    <use xlink:href="#DejaVuSans-61" x="2038.765625"/>
    <use xlink:href="#DejaVuSans-6e" x="2100.044922"/>
    <use xlink:href="#DejaVuSans-73" x="2163.423828"/>
    <use xlink:href="#DejaVuSans-29" x="2215.523438"/>
   </g>
  </g>
 </g>
 <defs>
  <clipPath id="p3c5b9e1c34">
   <rect x="115.2" y="36" width="201.6" height="309.6"/>
  </clipPath>
 </defs>
</svg>
