participant	absolute	relative	complete
0	1	0.25	False
1	1	0.25	False
2	2	0.5	False
3	3	0.75	False
4	3	0.75	False
5	4	1.0	True
6	3	0.75	False
7	2	0.5	False
8	4	1.0	True
9	1	0.25	False
10	1	0.25	False
11	3	0.75	False
12	1	0.25	False
13	3	0.75	False
14	2	0.5	False
15	4	1.0	True
16	4	1.0	True
17	1	0.25	False
18	1	0.25	False
19	1	0.25	False
20	3	0.75	False
