<?xml version="1.0" encoding="utf-8" standalone="no"?>
<!DOCTYPE svg PUBLIC "-//W3C//DTD SVG 1.1//EN"
  "http://www.w3.org/Graphics/SVG/1.1/DTD/svg11.dtd">
<svg xmlns:xlink="http://www.w3.org/1999/xlink" width="417.6pt" height="460.8pt" viewBox="0 0 417.6 460.8" xmlns="http://www.w3.org/2000/svg" version="1.1">
 <metadata>
  <rdf:RDF xmlns:dc="http://purl.org/dc/elements/1.1/" xmlns:cc="http://creativecommons.org/ns#" xmlns:rdf="http://www.w3.org/1999/02/22-rdf-syntax-ns#">
   <cc:Work>
    <dc:type rdf:resource="http://purl.org/dc/dcmitype/StillImage"/>
    <dc:date>2022-09-22T16:14:15.250819</dc:date>
    <dc:format>image/svg+xml</dc:format>
    <dc:creator>
     <cc:Agent>
      <dc:title>Matplotlib v3.5.3, https://matplotlib.org/</dc:title>
     </cc:Agent>
    </dc:creator>
   </cc:Work>
  </rdf:RDF>
 </metadata>
 <defs>
  <style type="text/css">*{stroke-linejoin: round; stroke-linecap: butt}</style>
 </defs>
 <g id="figure_1">
  <g id="patch_1">
   <path d="M 0 460.8 
L 417.6 460.8 
L 417.6 0 
L 0 0 
z
" style="fill: #ffffff"/>
  </g>
  <g id="axes_1">
   <g id="patch_2">
    <path d="M 194.4 345.6 
L 338.4 345.6 
L 338.4 36 
L 194.4 36 
z
" style="fill: #ffffff"/>
   </g>
   <g id="matplotlib.axis_1">
    <g id="xtick_1">
     <g id="line2d_1">
      <defs>
       <path id="meb0377e4ff" d="M 0 0 
L 0 3.5 
" style="stroke: #000000; stroke-width: 0.8"/>
      </defs>
      <g>
       <use xlink:href="#meb0377e4ff" x="208.8" y="345.6" style="stroke: #000000; stroke-width: 0.8"/>
      </g>
     </g>
     <g id="text_1">
      <!-- distributed computing -->
      <g transform="translate(128.940023 436.362323)rotate(-45)scale(0.1 -0.1)">
       <defs>
        <path id="DejaVuSans-64" d="M 2906 2969 
L 2906 4863 
L 3481 4863 
L 3481 0 
L 2906 0 
L 2906 525 
Q 2725 213 2448 61 
Q 2172 -91 1784 -91 
Q 1150 -91 751 415 
Q 353 922 353 1747 
Q 353 2572 751 3078 
Q 1150 3584 1784 3584 
Q 2172 3584 2448 3432 
Q 2725 3281 2906 2969 
z
M 947 1747 
Q 947 1113 1208 752 
Q 1469 391 1925 391 
Q 2381 391 2643 752 
Q 2906 1113 2906 1747 
Q 2906 2381 2643 2742 
Q 2381 3103 1925 3103 
Q 1469 3103 1208 2742 
Q 947 2381 947 1747 
z
" transform="scale(0.015625)"/>
        <path id="DejaVuSans-69" d="M 603 3500 
L 1178 3500 
L 1178 0 
L 603 0 
L 603 3500 
z
M 603 4863 
L 1178 4863 
L 1178 4134 
L 603 4134 
L 603 4863 
z
" transform="scale(0.015625)"/>
        <path id="DejaVuSans-73" d="M 2834 3397 
L 2834 2853 
Q 2591 2978 2328 3040 
Q 2066 3103 1784 3103 
Q 1356 3103 1142 2972 
Q 928 2841 928 2578 
Q 928 2378 1081 2264 
Q 1234 2150 1697 2047 
L 1894 2003 
Q 2506 1872 2764 1633 
Q 3022 1394 3022 966 
Q 3022 478 2636 193 
Q 2250 -91 1575 -91 
Q 1294 -91 989 -36 
Q 684 19 347 128 
L 347 722 
Q 666 556 975 473 
Q 1284 391 1588 391 
Q 1994 391 2212 530 
Q 2431 669 2431 922 
Q 2431 1156 2273 1281 
Q 2116 1406 1581 1522 
L 1381 1569 
Q 847 1681 609 1914 
Q 372 2147 372 2553 
Q 372 3047 722 3315 
Q 1072 3584 1716 3584 
Q 2034 3584 2315 3537 
Q 2597 3491 2834 3397 
z
" transform="scale(0.015625)"/>
        <path id="DejaVuSans-74" d="M 1172 4494 
L 1172 3500 
L 2356 3500 
L 2356 3053 
L 1172 3053 
L 1172 1153 
Q 1172 725 1289 603 
Q 1406 481 1766 481 
L 2356 481 
L 2356 0 
L 1766 0 
Q 1100 0 847 248 
Q 594 497 594 1153 
L 594 3053 
L 172 3053 
L 172 3500 
L 594 3500 
L 594 4494 
L 1172 4494 
z
" transform="scale(0.015625)"/>
        <path id="DejaVuSans-72" d="M 2631 2963 
Q 2534 3019 2420 3045 
Q 2306 3072 2169 3072 
Q 1681 3072 1420 2755 
Q 1159 2438 1159 1844 
L 1159 0 
L 581 0 
L 581 3500 
L 1159 3500 
L 1159 2956 
Q 1341 3275 1631 3429 
Q 1922 3584 2338 3584 
Q 2397 3584 2469 3576 
Q 2541 3569 2628 3553 
L 2631 2963 
z
" transform="scale(0.015625)"/>
        <path id="DejaVuSans-62" d="M 3116 1747 
Q 3116 2381 2855 2742 
Q 2594 3103 2138 3103 
Q 1681 3103 1420 2742 
Q 1159 2381 1159 1747 
Q 1159 1113 1420 752 
Q 1681 391 2138 391 
Q 2594 391 2855 752 
Q 3116 1113 3116 1747 
z
M 1159 2969 
Q 1341 3281 1617 3432 
Q 1894 3584 2278 3584 
Q 2916 3584 3314 3078 
Q 3713 2572 3713 1747 
Q 3713 922 3314 415 
Q 2916 -91 2278 -91 
Q 1894 -91 1617 61 
Q 1341 213 1159 525 
L 1159 0 
L 581 0 
L 581 4863 
L 1159 4863 
L 1159 2969 
z
" transform="scale(0.015625)"/>
        <path id="DejaVuSans-75" d="M 544 1381 
L 544 3500 
L 1119 3500 
L 1119 1403 
Q 1119 906 1312 657 
Q 1506 409 1894 409 
Q 2359 409 2629 706 
Q 2900 1003 2900 1516 
L 2900 3500 
L 3475 3500 
L 3475 0 
L 2900 0 
L 2900 538 
Q 2691 219 2414 64 
Q 2138 -91 1772 -91 
Q 1169 -91 856 284 
Q 544 659 544 1381 
z
M 1991 3584 
L 1991 3584 
z
" transform="scale(0.015625)"/>
        <path id="DejaVuSans-65" d="M 3597 1894 
L 3597 1613 
L 953 1613 
Q 991 1019 1311 708 
Q 1631 397 2203 397 
Q 2534 397 2845 478 
Q 3156 559 3463 722 
L 3463 178 
Q 3153 47 2828 -22 
Q 2503 -91 2169 -91 
Q 1331 -91 842 396 
Q 353 884 353 1716 
Q 353 2575 817 3079 
Q 1281 3584 2069 3584 
Q 2775 3584 3186 3129 
Q 3597 2675 3597 1894 
z
M 3022 2063 
Q 3016 2534 2758 2815 
Q 2500 3097 2075 3097 
Q 1594 3097 1305 2825 
Q 1016 2553 972 2059 
L 3022 2063 
z
" transform="scale(0.015625)"/>
        <path id="DejaVuSans-20" transform="scale(0.015625)"/>
        <path id="DejaVuSans-63" d="M 3122 3366 
L 3122 2828 
Q 2878 2963 2633 3030 
Q 2388 3097 2138 3097 
Q 1578 3097 1268 2742 
Q 959 2388 959 1747 
Q 959 1106 1268 751 
Q 1578 397 2138 397 
Q 2388 397 2633 464 
Q 2878 531 3122 666 
L 3122 134 
Q 2881 22 2623 -34 
Q 2366 -91 2075 -91 
Q 1284 -91 818 406 
Q 353 903 353 1747 
Q 353 2603 823 3093 
Q 1294 3584 2113 3584 
Q 2378 3584 2631 3529 
Q 2884 3475 3122 3366 
z
" transform="scale(0.015625)"/>
        <path id="DejaVuSans-6f" d="M 1959 3097 
Q 1497 3097 1228 2736 
Q 959 2375 959 1747 
Q 959 1119 1226 758 
Q 1494 397 1959 397 
Q 2419 397 2687 759 
Q 2956 1122 2956 1747 
Q 2956 2369 2687 2733 
Q 2419 3097 1959 3097 
z
M 1959 3584 
Q 2709 3584 3137 3096 
Q 3566 2609 3566 1747 
Q 3566 888 3137 398 
Q 2709 -91 1959 -91 
Q 1206 -91 779 398 
Q 353 888 353 1747 
Q 353 2609 779 3096 
Q 1206 3584 1959 3584 
z
" transform="scale(0.015625)"/>
        <path id="DejaVuSans-6d" d="M 3328 2828 
Q 3544 3216 3844 3400 
Q 4144 3584 4550 3584 
Q 5097 3584 5394 3201 
Q 5691 2819 5691 2113 
L 5691 0 
L 5113 0 
L 5113 2094 
Q 5113 2597 4934 2840 
Q 4756 3084 4391 3084 
Q 3944 3084 3684 2787 
Q 3425 2491 3425 1978 
L 3425 0 
L 2847 0 
L 2847 2094 
Q 2847 2600 2669 2842 
Q 2491 3084 2119 3084 
Q 1678 3084 1418 2786 
Q 1159 2488 1159 1978 
L 1159 0 
L 581 0 
L 581 3500 
L 1159 3500 
L 1159 2956 
Q 1356 3278 1631 3431 
Q 1906 3584 2284 3584 
Q 2666 3584 2933 3390 
Q 3200 3197 3328 2828 
z
" transform="scale(0.015625)"/>
        <path id="DejaVuSans-70" d="M 1159 525 
L 1159 -1331 
L 581 -1331 
L 581 3500 
L 1159 3500 
L 1159 2969 
Q 1341 3281 1617 3432 
Q 1894 3584 2278 3584 
Q 2916 3584 3314 3078 
Q 3713 2572 3713 1747 
Q 3713 922 3314 415 
Q 2916 -91 2278 -91 
Q 1894 -91 1617 61 
Q 1341 213 1159 525 
z
M 3116 1747 
Q 3116 2381 2855 2742 
Q 2594 3103 2138 3103 
Q 1681 3103 1420 2742 
Q 1159 2381 1159 1747 
Q 1159 1113 1420 752 
Q 1681 391 2138 391 
Q 2594 391 2855 752 
Q 3116 1113 3116 1747 
z
" transform="scale(0.015625)"/>
        <path id="DejaVuSans-6e" d="M 3513 2113 
L 3513 0 
L 2938 0 
L 2938 2094 
Q 2938 2591 2744 2837 
Q 2550 3084 2163 3084 
Q 1697 3084 1428 2787 
Q 1159 2491 1159 1978 
L 1159 0 
L 581 0 
L 581 3500 
L 1159 3500 
L 1159 2956 
Q 1366 3272 1645 3428 
Q 1925 3584 2291 3584 
Q 2894 3584 3203 3211 
Q 3513 2838 3513 2113 
z
" transform="scale(0.015625)"/>
        <path id="DejaVuSans-67" d="M 2906 1791 
Q 2906 2416 2648 2759 
Q 2391 3103 1925 3103 
Q 1463 3103 1205 2759 
Q 947 2416 947 1791 
Q 947 1169 1205 825 
Q 1463 481 1925 481 
Q 2391 481 2648 825 
Q 2906 1169 2906 1791 
z
M 3481 434 
Q 3481 -459 3084 -895 
Q 2688 -1331 1869 -1331 
Q 1566 -1331 1297 -1286 
Q 1028 -1241 775 -1147 
L 775 -588 
Q 1028 -725 1275 -790 
Q 1522 -856 1778 -856 
Q 2344 -856 2625 -561 
Q 2906 -266 2906 331 
L 2906 616 
Q 2728 306 2450 153 
Q 2172 0 1784 0 
Q 1141 0 747 490 
Q 353 981 353 1791 
Q 353 2603 747 3093 
Q 1141 3584 1784 3584 
Q 2172 3584 2450 3431 
Q 2728 3278 2906 2969 
L 2906 3500 
L 3481 3500 
L 3481 434 
z
" transform="scale(0.015625)"/>
       </defs>
       <use xlink:href="#DejaVuSans-64"/>
       <use xlink:href="#DejaVuSans-69" x="63.476562"/>
       <use xlink:href="#DejaVuSans-73" x="91.259766"/>
       <use xlink:href="#DejaVuSans-74" x="143.359375"/>
       <use xlink:href="#DejaVuSans-72" x="182.568359"/>
       <use xlink:href="#DejaVuSans-69" x="223.681641"/>
       <use xlink:href="#DejaVuSans-62" x="251.464844"/>
       <use xlink:href="#DejaVuSans-75" x="314.941406"/>
       <use xlink:href="#DejaVuSans-74" x="378.320312"/>
       <use xlink:href="#DejaVuSans-65" x="417.529297"/>
       <use xlink:href="#DejaVuSans-64" x="479.052734"/>
       <use xlink:href="#DejaVuSans-20" x="542.529297"/>
       <use xlink:href="#DejaVuSans-63" x="574.316406"/>
       <use xlink:href="#DejaVuSans-6f" x="629.296875"/>
       <use xlink:href="#DejaVuSans-6d" x="690.478516"/>
       <use xlink:href="#DejaVuSans-70" x="787.890625"/>
       <use xlink:href="#DejaVuSans-75" x="851.367188"/>
       <use xlink:href="#DejaVuSans-74" x="914.746094"/>
       <use xlink:href="#DejaVuSans-69" x="953.955078"/>
       <use xlink:href="#DejaVuSans-6e" x="981.738281"/>
       <use xlink:href="#DejaVuSans-67" x="1045.117188"/>
      </g>
     </g>
    </g>
    <g id="xtick_2">
     <g id="line2d_2">
      <g>
       <use xlink:href="#meb0377e4ff" x="237.6" y="345.6" style="stroke: #000000; stroke-width: 0.8"/>
      </g>
     </g>
     <g id="text_2">
      <!-- message-passing -->
      <g transform="translate(174.67523 419.427115)rotate(-45)scale(0.1 -0.1)">
       <defs>
        <path id="DejaVuSans-61" d="M 2194 1759 
Q 1497 1759 1228 1600 
Q 959 1441 959 1056 
Q 959 750 1161 570 
Q 1363 391 1709 391 
Q 2188 391 2477 730 
Q 2766 1069 2766 1631 
L 2766 1759 
L 2194 1759 
z
M 3341 1997 
L 3341 0 
L 2766 0 
L 2766 531 
Q 2569 213 2275 61 
Q 1981 -91 1556 -91 
Q 1019 -91 701 211 
Q 384 513 384 1019 
Q 384 1609 779 1909 
Q 1175 2209 1959 2209 
L 2766 2209 
L 2766 2266 
Q 2766 2663 2505 2880 
Q 2244 3097 1772 3097 
Q 1472 3097 1187 3025 
Q 903 2953 641 2809 
L 641 3341 
Q 956 3463 1253 3523 
Q 1550 3584 1831 3584 
Q 2591 3584 2966 3190 
Q 3341 2797 3341 1997 
z
" transform="scale(0.015625)"/>
        <path id="DejaVuSans-2d" d="M 313 2009 
L 1997 2009 
L 1997 1497 
L 313 1497 
L 313 2009 
z
" transform="scale(0.015625)"/>
       </defs>
       <use xlink:href="#DejaVuSans-6d"/>
       <use xlink:href="#DejaVuSans-65" x="97.412109"/>
       <use xlink:href="#DejaVuSans-73" x="158.935547"/>
       <use xlink:href="#DejaVuSans-73" x="211.035156"/>
       <use xlink:href="#DejaVuSans-61" x="263.134766"/>
       <use xlink:href="#DejaVuSans-67" x="324.414062"/>
       <use xlink:href="#DejaVuSans-65" x="387.890625"/>
       <use xlink:href="#DejaVuSans-2d" x="449.414062"/>
       <use xlink:href="#DejaVuSans-70" x="485.498047"/>
       <use xlink:href="#DejaVuSans-61" x="548.974609"/>
       <use xlink:href="#DejaVuSans-73" x="610.253906"/>
       <use xlink:href="#DejaVuSans-73" x="662.353516"/>
       <use xlink:href="#DejaVuSans-69" x="714.453125"/>
       <use xlink:href="#DejaVuSans-6e" x="742.236328"/>
       <use xlink:href="#DejaVuSans-67" x="805.615234"/>
      </g>
     </g>
    </g>
    <g id="xtick_3">
     <g id="line2d_3">
      <g>
       <use xlink:href="#meb0377e4ff" x="266.4" y="345.6" style="stroke: #000000; stroke-width: 0.8"/>
      </g>
     </g>
     <g id="text_3">
      <!-- real-time computing -->
      <g transform="translate(192.980219 429.922127)rotate(-45)scale(0.1 -0.1)">
       <defs>
        <path id="DejaVuSans-6c" d="M 603 4863 
L 1178 4863 
L 1178 0 
L 603 0 
L 603 4863 
z
" transform="scale(0.015625)"/>
       </defs>
       <use xlink:href="#DejaVuSans-72"/>
       <use xlink:href="#DejaVuSans-65" x="38.863281"/>
       <use xlink:href="#DejaVuSans-61" x="100.386719"/>
       <use xlink:href="#DejaVuSans-6c" x="161.666016"/>
       <use xlink:href="#DejaVuSans-2d" x="189.449219"/>
       <use xlink:href="#DejaVuSans-74" x="225.533203"/>
       <use xlink:href="#DejaVuSans-69" x="264.742188"/>
       <use xlink:href="#DejaVuSans-6d" x="292.525391"/>
       <use xlink:href="#DejaVuSans-65" x="389.9375"/>
       <use xlink:href="#DejaVuSans-20" x="451.460938"/>
       <use xlink:href="#DejaVuSans-63" x="483.248047"/>
       <use xlink:href="#DejaVuSans-6f" x="538.228516"/>
       <use xlink:href="#DejaVuSans-6d" x="599.410156"/>
       <use xlink:href="#DejaVuSans-70" x="696.822266"/>
       <use xlink:href="#DejaVuSans-75" x="760.298828"/>
       <use xlink:href="#DejaVuSans-74" x="823.677734"/>
       <use xlink:href="#DejaVuSans-69" x="862.886719"/>
       <use xlink:href="#DejaVuSans-6e" x="890.669922"/>
       <use xlink:href="#DejaVuSans-67" x="954.048828"/>
      </g>
     </g>
    </g>
    <g id="xtick_4">
     <g id="line2d_4">
      <g>
       <use xlink:href="#meb0377e4ff" x="295.2" y="345.6" style="stroke: #000000; stroke-width: 0.8"/>
      </g>
     </g>
     <g id="text_4">
      <!-- modular architectures -->
      <g transform="translate(215.631705 436.070641)rotate(-45)scale(0.1 -0.1)">
       <defs>
        <path id="DejaVuSans-68" d="M 3513 2113 
L 3513 0 
L 2938 0 
L 2938 2094 
Q 2938 2591 2744 2837 
Q 2550 3084 2163 3084 
Q 1697 3084 1428 2787 
Q 1159 2491 1159 1978 
L 1159 0 
L 581 0 
L 581 4863 
L 1159 4863 
L 1159 2956 
Q 1366 3272 1645 3428 
Q 1925 3584 2291 3584 
Q 2894 3584 3203 3211 
Q 3513 2838 3513 2113 
z
" transform="scale(0.015625)"/>
       </defs>
       <use xlink:href="#DejaVuSans-6d"/>
       <use xlink:href="#DejaVuSans-6f" x="97.412109"/>
       <use xlink:href="#DejaVuSans-64" x="158.59375"/>
       <use xlink:href="#DejaVuSans-75" x="222.070312"/>
       <use xlink:href="#DejaVuSans-6c" x="285.449219"/>
       <use xlink:href="#DejaVuSans-61" x="313.232422"/>
       <use xlink:href="#DejaVuSans-72" x="374.511719"/>
       <use xlink:href="#DejaVuSans-20" x="415.625"/>
       <use xlink:href="#DejaVuSans-61" x="447.412109"/>
       <use xlink:href="#DejaVuSans-72" x="508.691406"/>
       <use xlink:href="#DejaVuSans-63" x="547.554688"/>
       <use xlink:href="#DejaVuSans-68" x="602.535156"/>
       <use xlink:href="#DejaVuSans-69" x="665.914062"/>
       <use xlink:href="#DejaVuSans-74" x="693.697266"/>
       <use xlink:href="#DejaVuSans-65" x="732.90625"/>
       <use xlink:href="#DejaVuSans-63" x="794.429688"/>
       <use xlink:href="#DejaVuSans-74" x="849.410156"/>
       <use xlink:href="#DejaVuSans-75" x="888.619141"/>
       <use xlink:href="#DejaVuSans-72" x="951.998047"/>
       <use xlink:href="#DejaVuSans-65" x="990.861328"/>
       <use xlink:href="#DejaVuSans-73" x="1052.384766"/>
      </g>
     </g>
    </g>
    <g id="xtick_5">
     <g id="line2d_5">
      <g>
       <use xlink:href="#meb0377e4ff" x="324" y="345.6" style="stroke: #000000; stroke-width: 0.8"/>
      </g>
     </g>
     <g id="text_5">
      <!-- robotics -->
      <g transform="translate(294.331346 386.170999)rotate(-45)scale(0.1 -0.1)">
       <use xlink:href="#DejaVuSans-72"/>
       <use xlink:href="#DejaVuSans-6f" x="38.863281"/>
       <use xlink:href="#DejaVuSans-62" x="100.044922"/>
       <use xlink:href="#DejaVuSans-6f" x="163.521484"/>
       <use xlink:href="#DejaVuSans-74" x="224.703125"/>
       <use xlink:href="#DejaVuSans-69" x="263.912109"/>
       <use xlink:href="#DejaVuSans-63" x="291.695312"/>
       <use xlink:href="#DejaVuSans-73" x="346.675781"/>
      </g>
     </g>
    </g>
    <g id="text_6">
     <!-- category -->
     <g transform="translate(244.301562 449.431321)scale(0.1 -0.1)">
      <defs>
       <path id="DejaVuSans-79" d="M 2059 -325 
Q 1816 -950 1584 -1140 
Q 1353 -1331 966 -1331 
L 506 -1331 
L 506 -850 
L 844 -850 
Q 1081 -850 1212 -737 
Q 1344 -625 1503 -206 
L 1606 56 
L 191 3500 
L 800 3500 
L 1894 763 
L 2988 3500 
L 3597 3500 
L 2059 -325 
z
" transform="scale(0.015625)"/>
      </defs>
      <use xlink:href="#DejaVuSans-63"/>
      <use xlink:href="#DejaVuSans-61" x="54.980469"/>
      <use xlink:href="#DejaVuSans-74" x="116.259766"/>
      <use xlink:href="#DejaVuSans-65" x="155.46875"/>
      <use xlink:href="#DejaVuSans-67" x="216.992188"/>
      <use xlink:href="#DejaVuSans-6f" x="280.46875"/>
      <use xlink:href="#DejaVuSans-72" x="341.650391"/>
      <use xlink:href="#DejaVuSans-79" x="382.763672"/>
     </g>
    </g>
   </g>
   <g id="matplotlib.axis_2">
    <g id="ytick_1">
     <g id="line2d_6">
      <defs>
       <path id="meeabdbfe7a" d="M 0 0 
L -3.5 0 
" style="stroke: #000000; stroke-width: 0.8"/>
      </defs>
      <g>
       <use xlink:href="#meeabdbfe7a" x="194.4" y="336.582524" style="stroke: #000000; stroke-width: 0.8"/>
      </g>
     </g>
     <g id="text_7">
      <!-- none -->
      <g transform="translate(162.453125 340.381743)scale(0.1 -0.1)">
       <use xlink:href="#DejaVuSans-6e"/>
       <use xlink:href="#DejaVuSans-6f" x="63.378906"/>
       <use xlink:href="#DejaVuSans-6e" x="124.560547"/>
       <use xlink:href="#DejaVuSans-65" x="187.939453"/>
      </g>
     </g>
    </g>
    <g id="ytick_2">
     <g id="line2d_7">
      <g>
       <use xlink:href="#meeabdbfe7a" x="194.4" y="276.466019" style="stroke: #000000; stroke-width: 0.8"/>
      </g>
     </g>
     <g id="text_8">
      <!-- Novice -->
      <g transform="translate(153.451562 280.265238)scale(0.1 -0.1)">
       <defs>
        <path id="DejaVuSans-4e" d="M 628 4666 
L 1478 4666 
L 3547 763 
L 3547 4666 
L 4159 4666 
L 4159 0 
L 3309 0 
L 1241 3903 
L 1241 0 
L 628 0 
L 628 4666 
z
" transform="scale(0.015625)"/>
        <path id="DejaVuSans-76" d="M 191 3500 
L 800 3500 
L 1894 563 
L 2988 3500 
L 3597 3500 
L 2284 0 
L 1503 0 
L 191 3500 
z
" transform="scale(0.015625)"/>
       </defs>
       <use xlink:href="#DejaVuSans-4e"/>
       <use xlink:href="#DejaVuSans-6f" x="74.804688"/>
       <use xlink:href="#DejaVuSans-76" x="135.986328"/>
       <use xlink:href="#DejaVuSans-69" x="195.166016"/>
       <use xlink:href="#DejaVuSans-63" x="222.949219"/>
       <use xlink:href="#DejaVuSans-65" x="277.929688"/>
      </g>
     </g>
    </g>
    <g id="ytick_3">
     <g id="line2d_8">
      <g>
       <use xlink:href="#meeabdbfe7a" x="194.4" y="216.349515" style="stroke: #000000; stroke-width: 0.8"/>
      </g>
     </g>
     <g id="text_9">
      <!-- Advanced Beginner -->
      <g transform="translate(89.74375 220.148733)scale(0.1 -0.1)">
       <defs>
        <path id="DejaVuSans-41" d="M 2188 4044 
L 1331 1722 
L 3047 1722 
L 2188 4044 
z
M 1831 4666 
L 2547 4666 
L 4325 0 
L 3669 0 
L 3244 1197 
L 1141 1197 
L 716 0 
L 50 0 
L 1831 4666 
z
" transform="scale(0.015625)"/>
        <path id="DejaVuSans-42" d="M 1259 2228 
L 1259 519 
L 2272 519 
Q 2781 519 3026 730 
Q 3272 941 3272 1375 
Q 3272 1813 3026 2020 
Q 2781 2228 2272 2228 
L 1259 2228 
z
M 1259 4147 
L 1259 2741 
L 2194 2741 
Q 2656 2741 2882 2914 
Q 3109 3088 3109 3444 
Q 3109 3797 2882 3972 
Q 2656 4147 2194 4147 
L 1259 4147 
z
M 628 4666 
L 2241 4666 
Q 2963 4666 3353 4366 
Q 3744 4066 3744 3513 
Q 3744 3084 3544 2831 
Q 3344 2578 2956 2516 
Q 3422 2416 3680 2098 
Q 3938 1781 3938 1306 
Q 3938 681 3513 340 
Q 3088 0 2303 0 
L 628 0 
L 628 4666 
z
" transform="scale(0.015625)"/>
       </defs>
       <use xlink:href="#DejaVuSans-41"/>
       <use xlink:href="#DejaVuSans-64" x="66.658203"/>
       <use xlink:href="#DejaVuSans-76" x="130.134766"/>
       <use xlink:href="#DejaVuSans-61" x="189.314453"/>
       <use xlink:href="#DejaVuSans-6e" x="250.59375"/>
       <use xlink:href="#DejaVuSans-63" x="313.972656"/>
       <use xlink:href="#DejaVuSans-65" x="368.953125"/>
       <use xlink:href="#DejaVuSans-64" x="430.476562"/>
       <use xlink:href="#DejaVuSans-20" x="493.953125"/>
       <use xlink:href="#DejaVuSans-42" x="525.740234"/>
       <use xlink:href="#DejaVuSans-65" x="594.34375"/>
       <use xlink:href="#DejaVuSans-67" x="655.867188"/>
       <use xlink:href="#DejaVuSans-69" x="719.34375"/>
       <use xlink:href="#DejaVuSans-6e" x="747.126953"/>
       <use xlink:href="#DejaVuSans-6e" x="810.505859"/>
       <use xlink:href="#DejaVuSans-65" x="873.884766"/>
       <use xlink:href="#DejaVuSans-72" x="935.408203"/>
      </g>
     </g>
    </g>
    <g id="ytick_4">
     <g id="line2d_9">
      <g>
       <use xlink:href="#meeabdbfe7a" x="194.4" y="156.23301" style="stroke: #000000; stroke-width: 0.8"/>
      </g>
     </g>
     <g id="text_10">
      <!-- Competent -->
      <g transform="translate(131.725 160.032228)scale(0.1 -0.1)">
       <defs>
        <path id="DejaVuSans-43" d="M 4122 4306 
L 4122 3641 
Q 3803 3938 3442 4084 
Q 3081 4231 2675 4231 
Q 1875 4231 1450 3742 
Q 1025 3253 1025 2328 
Q 1025 1406 1450 917 
Q 1875 428 2675 428 
Q 3081 428 3442 575 
Q 3803 722 4122 1019 
L 4122 359 
Q 3791 134 3420 21 
Q 3050 -91 2638 -91 
Q 1578 -91 968 557 
Q 359 1206 359 2328 
Q 359 3453 968 4101 
Q 1578 4750 2638 4750 
Q 3056 4750 3426 4639 
Q 3797 4528 4122 4306 
z
" transform="scale(0.015625)"/>
       </defs>
       <use xlink:href="#DejaVuSans-43"/>
       <use xlink:href="#DejaVuSans-6f" x="69.824219"/>
       <use xlink:href="#DejaVuSans-6d" x="131.005859"/>
       <use xlink:href="#DejaVuSans-70" x="228.417969"/>
       <use xlink:href="#DejaVuSans-65" x="291.894531"/>
       <use xlink:href="#DejaVuSans-74" x="353.417969"/>
       <use xlink:href="#DejaVuSans-65" x="392.626953"/>
       <use xlink:href="#DejaVuSans-6e" x="454.150391"/>
       <use xlink:href="#DejaVuSans-74" x="517.529297"/>
      </g>
     </g>
    </g>
    <g id="ytick_5">
     <g id="line2d_10">
      <g>
       <use xlink:href="#meeabdbfe7a" x="194.4" y="96.116505" style="stroke: #000000; stroke-width: 0.8"/>
      </g>
     </g>
     <g id="text_11">
      <!-- Proficient -->
      <g transform="translate(140.554688 99.915724)scale(0.1 -0.1)">
       <defs>
        <path id="DejaVuSans-50" d="M 1259 4147 
L 1259 2394 
L 2053 2394 
Q 2494 2394 2734 2622 
Q 2975 2850 2975 3272 
Q 2975 3691 2734 3919 
Q 2494 4147 2053 4147 
L 1259 4147 
z
M 628 4666 
L 2053 4666 
Q 2838 4666 3239 4311 
Q 3641 3956 3641 3272 
Q 3641 2581 3239 2228 
Q 2838 1875 2053 1875 
L 1259 1875 
L 1259 0 
L 628 0 
L 628 4666 
z
" transform="scale(0.015625)"/>
        <path id="DejaVuSans-66" d="M 2375 4863 
L 2375 4384 
L 1825 4384 
Q 1516 4384 1395 4259 
Q 1275 4134 1275 3809 
L 1275 3500 
L 2222 3500 
L 2222 3053 
L 1275 3053 
L 1275 0 
L 697 0 
L 697 3053 
L 147 3053 
L 147 3500 
L 697 3500 
L 697 3744 
Q 697 4328 969 4595 
Q 1241 4863 1831 4863 
L 2375 4863 
z
" transform="scale(0.015625)"/>
       </defs>
       <use xlink:href="#DejaVuSans-50"/>
       <use xlink:href="#DejaVuSans-72" x="58.552734"/>
       <use xlink:href="#DejaVuSans-6f" x="97.416016"/>
       <use xlink:href="#DejaVuSans-66" x="158.597656"/>
       <use xlink:href="#DejaVuSans-69" x="193.802734"/>
       <use xlink:href="#DejaVuSans-63" x="221.585938"/>
       <use xlink:href="#DejaVuSans-69" x="276.566406"/>
       <use xlink:href="#DejaVuSans-65" x="304.349609"/>
       <use xlink:href="#DejaVuSans-6e" x="365.873047"/>
       <use xlink:href="#DejaVuSans-74" x="429.251953"/>
      </g>
     </g>
    </g>
    <g id="ytick_6">
     <g id="line2d_11">
      <g>
       <use xlink:href="#meeabdbfe7a" x="194.4" y="36" style="stroke: #000000; stroke-width: 0.8"/>
      </g>
     </g>
     <g id="text_12">
      <!-- Expert -->
      <g transform="translate(154.629687 39.799219)scale(0.1 -0.1)">
       <defs>
        <path id="DejaVuSans-45" d="M 628 4666 
L 3578 4666 
L 3578 4134 
L 1259 4134 
L 1259 2753 
L 3481 2753 
L 3481 2222 
L 1259 2222 
L 1259 531 
L 3634 531 
L 3634 0 
L 628 0 
L 628 4666 
z
" transform="scale(0.015625)"/>
        <path id="DejaVuSans-78" d="M 3513 3500 
L 2247 1797 
L 3578 0 
L 2900 0 
L 1881 1375 
L 863 0 
L 184 0 
L 1544 1831 
L 300 3500 
L 978 3500 
L 1906 2253 
L 2834 3500 
L 3513 3500 
z
" transform="scale(0.015625)"/>
       </defs>
       <use xlink:href="#DejaVuSans-45"/>
       <use xlink:href="#DejaVuSans-78" x="63.183594"/>
       <use xlink:href="#DejaVuSans-70" x="122.363281"/>
       <use xlink:href="#DejaVuSans-65" x="185.839844"/>
       <use xlink:href="#DejaVuSans-72" x="247.363281"/>
       <use xlink:href="#DejaVuSans-74" x="288.476562"/>
      </g>
     </g>
    </g>
    <g id="text_13">
     <!-- experience level -->
     <g transform="translate(83.664062 231.994531)rotate(-90)scale(0.1 -0.1)">
      <use xlink:href="#DejaVuSans-65"/>
      <use xlink:href="#DejaVuSans-78" x="59.773438"/>
      <use xlink:href="#DejaVuSans-70" x="118.953125"/>
      <use xlink:href="#DejaVuSans-65" x="182.429688"/>
      <use xlink:href="#DejaVuSans-72" x="243.953125"/>
      <use xlink:href="#DejaVuSans-69" x="285.066406"/>
      <use xlink:href="#DejaVuSans-65" x="312.849609"/>
      <use xlink:href="#DejaVuSans-6e" x="374.373047"/>
      <use xlink:href="#DejaVuSans-63" x="437.751953"/>
      <use xlink:href="#DejaVuSans-65" x="492.732422"/>
      <use xlink:href="#DejaVuSans-20" x="554.255859"/>
      <use xlink:href="#DejaVuSans-6c" x="586.042969"/>
      <use xlink:href="#DejaVuSans-65" x="613.826172"/>
      <use xlink:href="#DejaVuSans-76" x="675.349609"/>
      <use xlink:href="#DejaVuSans-65" x="734.529297"/>
      <use xlink:href="#DejaVuSans-6c" x="796.052734"/>
     </g>
    </g>
   </g>
   <g id="line2d_12">
    <path d="M 201.6 336.582524 
L 216 336.582524 
L 216 321.553398 
L 201.6 321.553398 
L 201.6 336.582524 
" clip-path="url(#pf7a206e1b1)" style="fill: none; stroke: #000000; stroke-linecap: square"/>
   </g>
   <g id="line2d_13">
    <path d="M 208.8 336.582524 
L 208.8 336.582524 
" clip-path="url(#pf7a206e1b1)" style="fill: none; stroke: #000000; stroke-linecap: square"/>
   </g>
   <g id="line2d_14">
    <path d="M 208.8 321.553398 
L 208.8 321.553398 
" clip-path="url(#pf7a206e1b1)" style="fill: none; stroke: #000000; stroke-linecap: square"/>
   </g>
   <g id="line2d_15">
    <path d="M 205.2 336.582524 
L 212.4 336.582524 
" clip-path="url(#pf7a206e1b1)" style="fill: none; stroke: #000000; stroke-linecap: square"/>
   </g>
   <g id="line2d_16">
    <path d="M 205.2 321.553398 
L 212.4 321.553398 
" clip-path="url(#pf7a206e1b1)" style="fill: none; stroke: #000000; stroke-linecap: square"/>
   </g>
   <g id="line2d_17">
    <defs>
     <path id="m01187aefc6" d="M 0 3 
C 0.795609 3 1.55874 2.683901 2.12132 2.12132 
C 2.683901 1.55874 3 0.795609 3 0 
C 3 -0.795609 2.683901 -1.55874 2.12132 -2.12132 
C 1.55874 -2.683901 0.795609 -3 0 -3 
C -0.795609 -3 -1.55874 -2.683901 -2.12132 -2.12132 
C -2.683901 -1.55874 -3 -0.795609 -3 0 
C -3 0.795609 -2.683901 1.55874 -2.12132 2.12132 
C -1.55874 2.683901 -0.795609 3 0 3 
z
" style="stroke: #000000"/>
    </defs>
    <g clip-path="url(#pf7a206e1b1)">
     <use xlink:href="#m01187aefc6" x="208.8" y="276.466019" style="fill-opacity: 0; stroke: #000000"/>
    </g>
   </g>
   <g id="line2d_18">
    <path d="M 230.4 246.407767 
L 244.8 246.407767 
L 244.8 156.23301 
L 230.4 156.23301 
L 230.4 246.407767 
" clip-path="url(#pf7a206e1b1)" style="fill: none; stroke: #000000; stroke-linecap: square"/>
   </g>
   <g id="line2d_19">
    <path d="M 237.6 246.407767 
L 237.6 336.582524 
" clip-path="url(#pf7a206e1b1)" style="fill: none; stroke: #000000; stroke-linecap: square"/>
   </g>
   <g id="line2d_20">
    <path d="M 237.6 156.23301 
L 237.6 156.23301 
" clip-path="url(#pf7a206e1b1)" style="fill: none; stroke: #000000; stroke-linecap: square"/>
   </g>
   <g id="line2d_21">
    <path d="M 234 336.582524 
L 241.2 336.582524 
" clip-path="url(#pf7a206e1b1)" style="fill: none; stroke: #000000; stroke-linecap: square"/>
   </g>
   <g id="line2d_22">
    <path d="M 234 156.23301 
L 241.2 156.23301 
" clip-path="url(#pf7a206e1b1)" style="fill: none; stroke: #000000; stroke-linecap: square"/>
   </g>
   <g id="line2d_23"/>
   <g id="line2d_24">
    <path d="M 259.2 291.495146 
L 273.6 291.495146 
L 273.6 201.320388 
L 259.2 201.320388 
L 259.2 291.495146 
" clip-path="url(#pf7a206e1b1)" style="fill: none; stroke: #000000; stroke-linecap: square"/>
   </g>
   <g id="line2d_25">
    <path d="M 266.4 291.495146 
L 266.4 336.582524 
" clip-path="url(#pf7a206e1b1)" style="fill: none; stroke: #000000; stroke-linecap: square"/>
   </g>
   <g id="line2d_26">
    <path d="M 266.4 201.320388 
L 266.4 156.23301 
" clip-path="url(#pf7a206e1b1)" style="fill: none; stroke: #000000; stroke-linecap: square"/>
   </g>
   <g id="line2d_27">
    <path d="M 262.8 336.582524 
L 270 336.582524 
" clip-path="url(#pf7a206e1b1)" style="fill: none; stroke: #000000; stroke-linecap: square"/>
   </g>
   <g id="line2d_28">
    <path d="M 262.8 156.23301 
L 270 156.23301 
" clip-path="url(#pf7a206e1b1)" style="fill: none; stroke: #000000; stroke-linecap: square"/>
   </g>
   <g id="line2d_29"/>
   <g id="line2d_30">
    <path d="M 288 291.495146 
L 302.4 291.495146 
L 302.4 156.23301 
L 288 156.23301 
L 288 291.495146 
" clip-path="url(#pf7a206e1b1)" style="fill: none; stroke: #000000; stroke-linecap: square"/>
   </g>
   <g id="line2d_31">
    <path d="M 295.2 291.495146 
L 295.2 336.582524 
" clip-path="url(#pf7a206e1b1)" style="fill: none; stroke: #000000; stroke-linecap: square"/>
   </g>
   <g id="line2d_32">
    <path d="M 295.2 156.23301 
L 295.2 156.23301 
" clip-path="url(#pf7a206e1b1)" style="fill: none; stroke: #000000; stroke-linecap: square"/>
   </g>
   <g id="line2d_33">
    <path d="M 291.6 336.582524 
L 298.8 336.582524 
" clip-path="url(#pf7a206e1b1)" style="fill: none; stroke: #000000; stroke-linecap: square"/>
   </g>
   <g id="line2d_34">
    <path d="M 291.6 156.23301 
L 298.8 156.23301 
" clip-path="url(#pf7a206e1b1)" style="fill: none; stroke: #000000; stroke-linecap: square"/>
   </g>
   <g id="line2d_35"/>
   <g id="line2d_36">
    <path d="M 316.8 246.407767 
L 331.2 246.407767 
L 331.2 156.23301 
L 316.8 156.23301 
L 316.8 246.407767 
" clip-path="url(#pf7a206e1b1)" style="fill: none; stroke: #000000; stroke-linecap: square"/>
   </g>
   <g id="line2d_37">
    <path d="M 324 246.407767 
L 324 336.582524 
" clip-path="url(#pf7a206e1b1)" style="fill: none; stroke: #000000; stroke-linecap: square"/>
   </g>
   <g id="line2d_38">
    <path d="M 324 156.23301 
L 324 156.23301 
" clip-path="url(#pf7a206e1b1)" style="fill: none; stroke: #000000; stroke-linecap: square"/>
   </g>
   <g id="line2d_39">
    <path d="M 320.4 336.582524 
L 327.6 336.582524 
" clip-path="url(#pf7a206e1b1)" style="fill: none; stroke: #000000; stroke-linecap: square"/>
   </g>
   <g id="line2d_40">
    <path d="M 320.4 156.23301 
L 327.6 156.23301 
" clip-path="url(#pf7a206e1b1)" style="fill: none; stroke: #000000; stroke-linecap: square"/>
   </g>
   <g id="line2d_41"/>
   <g id="line2d_42">
    <path d="M 201.6 336.582524 
L 216 336.582524 
" clip-path="url(#pf7a206e1b1)" style="fill: none; stroke: #000000; stroke-width: 2; stroke-linecap: square"/>
   </g>
   <g id="line2d_43">
    <defs>
     <path id="m7e8edf4cb2" d="M -0 4.242641 
L 4.242641 0 
L 0 -4.242641 
L -4.242641 -0 
z
" style="stroke: #000000; stroke-linejoin: miter"/>
    </defs>
    <g clip-path="url(#pf7a206e1b1)">
     <use xlink:href="#m7e8edf4cb2" x="208.8" y="321.553398" style="stroke: #000000; stroke-linejoin: miter"/>
    </g>
   </g>
   <g id="line2d_44">
    <path d="M 230.4 186.291262 
L 244.8 186.291262 
" clip-path="url(#pf7a206e1b1)" style="fill: none; stroke: #000000; stroke-width: 2; stroke-linecap: square"/>
   </g>
   <g id="line2d_45">
    <g clip-path="url(#pf7a206e1b1)">
     <use xlink:href="#m7e8edf4cb2" x="237.6" y="216.349515" style="stroke: #000000; stroke-linejoin: miter"/>
    </g>
   </g>
   <g id="line2d_46">
    <path d="M 259.2 246.407767 
L 273.6 246.407767 
" clip-path="url(#pf7a206e1b1)" style="fill: none; stroke: #000000; stroke-width: 2; stroke-linecap: square"/>
   </g>
   <g id="line2d_47">
    <g clip-path="url(#pf7a206e1b1)">
     <use xlink:href="#m7e8edf4cb2" x="266.4" y="246.407767" style="stroke: #000000; stroke-linejoin: miter"/>
    </g>
   </g>
   <g id="line2d_48">
    <path d="M 288 216.349515 
L 302.4 216.349515 
" clip-path="url(#pf7a206e1b1)" style="fill: none; stroke: #000000; stroke-width: 2; stroke-linecap: square"/>
   </g>
   <g id="line2d_49">
    <g clip-path="url(#pf7a206e1b1)">
     <use xlink:href="#m7e8edf4cb2" x="295.2" y="231.378641" style="stroke: #000000; stroke-linejoin: miter"/>
    </g>
   </g>
   <g id="line2d_50">
    <path d="M 316.8 186.291262 
L 331.2 186.291262 
" clip-path="url(#pf7a206e1b1)" style="fill: none; stroke: #000000; stroke-width: 2; stroke-linecap: square"/>
   </g>
   <g id="line2d_51">
    <g clip-path="url(#pf7a206e1b1)">
     <use xlink:href="#m7e8edf4cb2" x="324" y="216.349515" style="stroke: #000000; stroke-linejoin: miter"/>
    </g>
   </g>
   <g id="patch_3">
    <path d="M 194.4 345.6 
L 194.4 36 
" style="fill: none; stroke: #000000; stroke-width: 0.8; stroke-linejoin: miter; stroke-linecap: square"/>
   </g>
   <g id="patch_4">
    <path d="M 338.4 345.6 
L 338.4 36 
" style="fill: none; stroke: #000000; stroke-width: 0.8; stroke-linejoin: miter; stroke-linecap: square"/>
   </g>
   <g id="patch_5">
    <path d="M 194.4 345.6 
L 338.4 345.6 
" style="fill: none; stroke: #000000; stroke-width: 0.8; stroke-linejoin: miter; stroke-linecap: square"/>
   </g>
   <g id="patch_6">
    <path d="M 194.4 36 
L 338.4 36 
" style="fill: none; stroke: #000000; stroke-width: 0.8; stroke-linejoin: miter; stroke-linecap: square"/>
   </g>
  </g>
  <g id="text_14">
   <!-- Experience - How experienced are you with the following concepts? -->
   <g transform="translate(5.344688 18.334125)scale(0.12 -0.12)">
    <defs>
     <path id="DejaVuSans-48" d="M 628 4666 
L 1259 4666 
L 1259 2753 
L 3553 2753 
L 3553 4666 
L 4184 4666 
L 4184 0 
L 3553 0 
L 3553 2222 
L 1259 2222 
L 1259 0 
L 628 0 
L 628 4666 
z
" transform="scale(0.015625)"/>
     <path id="DejaVuSans-77" d="M 269 3500 
L 844 3500 
L 1563 769 
L 2278 3500 
L 2956 3500 
L 3675 769 
L 4391 3500 
L 4966 3500 
L 4050 0 
L 3372 0 
L 2619 2869 
L 1863 0 
L 1184 0 
L 269 3500 
z
" transform="scale(0.015625)"/>
     <path id="DejaVuSans-3f" d="M 1222 794 
L 1856 794 
L 1856 0 
L 1222 0 
L 1222 794 
z
M 1838 1253 
L 1241 1253 
L 1241 1734 
Q 1241 2050 1328 2253 
Q 1416 2456 1697 2725 
L 1978 3003 
Q 2156 3169 2236 3316 
Q 2316 3463 2316 3616 
Q 2316 3894 2111 4066 
Q 1906 4238 1569 4238 
Q 1322 4238 1042 4128 
Q 763 4019 459 3809 
L 459 4397 
Q 753 4575 1054 4662 
Q 1356 4750 1678 4750 
Q 2253 4750 2601 4447 
Q 2950 4144 2950 3647 
Q 2950 3409 2837 3195 
Q 2725 2981 2444 2713 
L 2169 2444 
Q 2022 2297 1961 2214 
Q 1900 2131 1875 2053 
Q 1856 1988 1847 1894 
Q 1838 1800 1838 1638 
L 1838 1253 
z
" transform="scale(0.015625)"/>
    </defs>
    <use xlink:href="#DejaVuSans-45"/>
    <use xlink:href="#DejaVuSans-78" x="63.183594"/>
    <use xlink:href="#DejaVuSans-70" x="122.363281"/>
    <use xlink:href="#DejaVuSans-65" x="185.839844"/>
    <use xlink:href="#DejaVuSans-72" x="247.363281"/>
    <use xlink:href="#DejaVuSans-69" x="288.476562"/>
    <use xlink:href="#DejaVuSans-65" x="316.259766"/>
    <use xlink:href="#DejaVuSans-6e" x="377.783203"/>
    <use xlink:href="#DejaVuSans-63" x="441.162109"/>
    <use xlink:href="#DejaVuSans-65" x="496.142578"/>
    <use xlink:href="#DejaVuSans-20" x="557.666016"/>
    <use xlink:href="#DejaVuSans-2d" x="589.453125"/>
    <use xlink:href="#DejaVuSans-20" x="625.537109"/>
    <use xlink:href="#DejaVuSans-48" x="657.324219"/>
    <use xlink:href="#DejaVuSans-6f" x="732.519531"/>
    <use xlink:href="#DejaVuSans-77" x="793.701172"/>
    <use xlink:href="#DejaVuSans-20" x="875.488281"/>
    <use xlink:href="#DejaVuSans-65" x="907.275391"/>
    <use xlink:href="#DejaVuSans-78" x="967.048828"/>
    <use xlink:href="#DejaVuSans-70" x="1026.228516"/>
    <use xlink:href="#DejaVuSans-65" x="1089.705078"/>
    <use xlink:href="#DejaVuSans-72" x="1151.228516"/>
    <use xlink:href="#DejaVuSans-69" x="1192.341797"/>
    <use xlink:href="#DejaVuSans-65" x="1220.125"/>
    <use xlink:href="#DejaVuSans-6e" x="1281.648438"/>
    <use xlink:href="#DejaVuSans-63" x="1345.027344"/>
    <use xlink:href="#DejaVuSans-65" x="1400.007812"/>
    <use xlink:href="#DejaVuSans-64" x="1461.53125"/>
    <use xlink:href="#DejaVuSans-20" x="1525.007812"/>
    <use xlink:href="#DejaVuSans-61" x="1556.794922"/>
    <use xlink:href="#DejaVuSans-72" x="1618.074219"/>
    <use xlink:href="#DejaVuSans-65" x="1656.9375"/>
    <use xlink:href="#DejaVuSans-20" x="1718.460938"/>
    <use xlink:href="#DejaVuSans-79" x="1750.248047"/>
    <use xlink:href="#DejaVuSans-6f" x="1809.427734"/>
    <use xlink:href="#DejaVuSans-75" x="1870.609375"/>
    <use xlink:href="#DejaVuSans-20" x="1933.988281"/>
    <use xlink:href="#DejaVuSans-77" x="1965.775391"/>
    <use xlink:href="#DejaVuSans-69" x="2047.5625"/>
    <use xlink:href="#DejaVuSans-74" x="2075.345703"/>
    <use xlink:href="#DejaVuSans-68" x="2114.554688"/>
    <use xlink:href="#DejaVuSans-20" x="2177.933594"/>
    <use xlink:href="#DejaVuSans-74" x="2209.720703"/>
    <use xlink:href="#DejaVuSans-68" x="2248.929688"/>
    <use xlink:href="#DejaVuSans-65" x="2312.308594"/>
    <use xlink:href="#DejaVuSans-20" x="2373.832031"/>
    <use xlink:href="#DejaVuSans-66" x="2405.619141"/>
    <use xlink:href="#DejaVuSans-6f" x="2440.824219"/>
    <use xlink:href="#DejaVuSans-6c" x="2502.005859"/>
    <use xlink:href="#DejaVuSans-6c" x="2529.789062"/>
    <use xlink:href="#DejaVuSans-6f" x="2557.572266"/>
    <use xlink:href="#DejaVuSans-77" x="2618.753906"/>
    <use xlink:href="#DejaVuSans-69" x="2700.541016"/>
    <use xlink:href="#DejaVuSans-6e" x="2728.324219"/>
    <use xlink:href="#DejaVuSans-67" x="2791.703125"/>
    <use xlink:href="#DejaVuSans-20" x="2855.179688"/>
    <use xlink:href="#DejaVuSans-63" x="2886.966797"/>
    <use xlink:href="#DejaVuSans-6f" x="2941.947266"/>
    <use xlink:href="#DejaVuSans-6e" x="3003.128906"/>
    <use xlink:href="#DejaVuSans-63" x="3066.507812"/>
    <use xlink:href="#DejaVuSans-65" x="3121.488281"/>
    <use xlink:href="#DejaVuSans-70" x="3183.011719"/>
    <use xlink:href="#DejaVuSans-74" x="3246.488281"/>
    <use xlink:href="#DejaVuSans-73" x="3285.697266"/>
    <use xlink:href="#DejaVuSans-3f" x="3337.796875"/>
   </g>
  </g>
 </g>
 <defs>
  <clipPath id="pf7a206e1b1">
   <rect x="194.4" y="36" width="144" height="309.6"/>
  </clipPath>
 </defs>
</svg>
