participant	02_ROS_LineFollowing	03_uRT_Tutorial	04_uRT_LineFollowing
5	I feel like we should work with it some more to be able to rate it properly.	n/a	n/a
8	n/a	n/a	n/a
15	I knew ROS before.	n/a	n/a
16	n/a	As I haven't worked with C that much it is difficult to say that much about uRT so far... 	n/a
20	n/a	n/a	n/a
